
# NAME 		: diboson1L
# DATA 		: 0
# AF2 		: 0
# PRIORITY 	: 0

mc16_13TeV.363359.Sherpa_221_NNPDF30NNLO_WpqqWmlv.deriv.DAOD_SUSY16.e5583_s3126_r9364_p3652
mc16_13TeV.363360.Sherpa_221_NNPDF30NNLO_WplvWmqq.deriv.DAOD_SUSY16.e5983_s3126_r9364_p3652
mc16_13TeV.363489.Sherpa_221_NNPDF30NNLO_WlvZqq.deriv.DAOD_SUSY16.e5525_s3126_r9364_p3652
mc16_13TeV.364255.Sherpa_222_NNPDF30NNLO_lvvv.deriv.DAOD_SUSY16.e5916_s3126_r9364_p3652
