# NAME          : MGPy8EG_A14N23LO_SlepSlep_dir_2L2MET75_%5_%6
# Data          : 0
# AF2           : 1
# PRIORITY      : 0

mc16_13TeV.505886.MGPy8EG_A14N23LO_SlepSlep_dir_100p0_80p0_2L2MET75.deriv.DAOD_PHYS.e8319_a875_r9364_p5001
mc16_13TeV.505887.MGPy8EG_A14N23LO_SlepSlep_dir_100p0_70p0_2L2MET75.deriv.DAOD_PHYS.e8319_a875_r9364_p5001
mc16_13TeV.505888.MGPy8EG_A14N23LO_SlepSlep_dir_100p0_60p0_2L2MET75.deriv.DAOD_PHYS.e8319_a875_r9364_p5001
mc16_13TeV.505889.MGPy8EG_A14N23LO_SlepSlep_dir_100p0_50p0_2L2MET75.deriv.DAOD_PHYS.e8319_a875_r9364_p5001
mc16_13TeV.505890.MGPy8EG_A14N23LO_SlepSlep_dir_100p0_40p0_2L2MET75.deriv.DAOD_PHYS.e8319_a875_r9364_p5001
mc16_13TeV.505891.MGPy8EG_A14N23LO_SlepSlep_dir_100p0_25p0_2L2MET75.deriv.DAOD_PHYS.e8319_a875_r9364_p5001
mc16_13TeV.505892.MGPy8EG_A14N23LO_SlepSlep_dir_125p0_105p0_2L2MET75.deriv.DAOD_PHYS.e8319_a875_r9364_p5001
mc16_13TeV.505893.MGPy8EG_A14N23LO_SlepSlep_dir_125p0_95p0_2L2MET75.deriv.DAOD_PHYS.e8319_a875_r9364_p5001
mc16_13TeV.505894.MGPy8EG_A14N23LO_SlepSlep_dir_125p0_85p0_2L2MET75.deriv.DAOD_PHYS.e8319_a875_r9364_p5001
mc16_13TeV.505895.MGPy8EG_A14N23LO_SlepSlep_dir_125p0_75p0_2L2MET75.deriv.DAOD_PHYS.e8319_a875_r9364_p5001
mc16_13TeV.505896.MGPy8EG_A14N23LO_SlepSlep_dir_125p0_65p0_2L2MET75.deriv.DAOD_PHYS.e8319_a875_r9364_p5001
mc16_13TeV.505897.MGPy8EG_A14N23LO_SlepSlep_dir_125p0_50p0_2L2MET75.deriv.DAOD_PHYS.e8319_a875_r9364_p5001
mc16_13TeV.505898.MGPy8EG_A14N23LO_SlepSlep_dir_150p0_130p0_2L2MET75.deriv.DAOD_PHYS.e8319_a875_r9364_p5001
mc16_13TeV.505899.MGPy8EG_A14N23LO_SlepSlep_dir_150p0_120p0_2L2MET75.deriv.DAOD_PHYS.e8319_a875_r9364_p5001
mc16_13TeV.505900.MGPy8EG_A14N23LO_SlepSlep_dir_150p0_110p0_2L2MET75.deriv.DAOD_PHYS.e8319_a875_r9364_p5001
mc16_13TeV.505901.MGPy8EG_A14N23LO_SlepSlep_dir_150p0_100p0_2L2MET75.deriv.DAOD_PHYS.e8319_a875_r9364_p5001
mc16_13TeV.505902.MGPy8EG_A14N23LO_SlepSlep_dir_150p0_90p0_2L2MET75.deriv.DAOD_PHYS.e8319_a875_r9364_p5001
mc16_13TeV.505903.MGPy8EG_A14N23LO_SlepSlep_dir_150p0_75p0_2L2MET75.deriv.DAOD_PHYS.e8319_a875_r9364_p5001
mc16_13TeV.505904.MGPy8EG_A14N23LO_SlepSlep_dir_175p0_155p0_2L2MET75.deriv.DAOD_PHYS.e8319_a875_r9364_p5001
mc16_13TeV.505905.MGPy8EG_A14N23LO_SlepSlep_dir_175p0_145p0_2L2MET75.deriv.DAOD_PHYS.e8319_a875_r9364_p5001
mc16_13TeV.505906.MGPy8EG_A14N23LO_SlepSlep_dir_175p0_135p0_2L2MET75.deriv.DAOD_PHYS.e8319_a875_r9364_p5001
mc16_13TeV.505907.MGPy8EG_A14N23LO_SlepSlep_dir_175p0_125p0_2L2MET75.deriv.DAOD_PHYS.e8319_a875_r9364_p5001
mc16_13TeV.505908.MGPy8EG_A14N23LO_SlepSlep_dir_175p0_115p0_2L2MET75.deriv.DAOD_PHYS.e8319_a875_r9364_p5001
mc16_13TeV.505909.MGPy8EG_A14N23LO_SlepSlep_dir_175p0_100p0_2L2MET75.deriv.DAOD_PHYS.e8319_a875_r9364_p5001
mc16_13TeV.505910.MGPy8EG_A14N23LO_SlepSlep_dir_200p0_190p0_2L2MET75.deriv.DAOD_PHYS.e8319_a875_r9364_p5001
mc16_13TeV.505911.MGPy8EG_A14N23LO_SlepSlep_dir_200p0_180p0_2L2MET75.deriv.DAOD_PHYS.e8319_a875_r9364_p5001
mc16_13TeV.505912.MGPy8EG_A14N23LO_SlepSlep_dir_200p0_170p0_2L2MET75.deriv.DAOD_PHYS.e8319_a875_r9364_p5001
mc16_13TeV.505913.MGPy8EG_A14N23LO_SlepSlep_dir_200p0_160p0_2L2MET75.deriv.DAOD_PHYS.e8319_a875_r9364_p5001
mc16_13TeV.505914.MGPy8EG_A14N23LO_SlepSlep_dir_200p0_150p0_2L2MET75.deriv.DAOD_PHYS.e8319_a875_r9364_p5001
mc16_13TeV.505915.MGPy8EG_A14N23LO_SlepSlep_dir_200p0_140p0_2L2MET75.deriv.DAOD_PHYS.e8319_a875_r9364_p5001
mc16_13TeV.505916.MGPy8EG_A14N23LO_SlepSlep_dir_200p0_125p0_2L2MET75.deriv.DAOD_PHYS.e8319_a875_r9364_p5001
mc16_13TeV.505917.MGPy8EG_A14N23LO_SlepSlep_dir_225p0_215p0_2L2MET75.deriv.DAOD_PHYS.e8319_a875_r9364_p5001
mc16_13TeV.505918.MGPy8EG_A14N23LO_SlepSlep_dir_225p0_205p0_2L2MET75.deriv.DAOD_PHYS.e8319_a875_r9364_p5001
mc16_13TeV.505919.MGPy8EG_A14N23LO_SlepSlep_dir_225p0_195p0_2L2MET75.deriv.DAOD_PHYS.e8319_a875_r9364_p5001
mc16_13TeV.505920.MGPy8EG_A14N23LO_SlepSlep_dir_225p0_185p0_2L2MET75.deriv.DAOD_PHYS.e8319_a875_r9364_p5001
mc16_13TeV.505921.MGPy8EG_A14N23LO_SlepSlep_dir_225p0_175p0_2L2MET75.deriv.DAOD_PHYS.e8319_a875_r9364_p5001
mc16_13TeV.505922.MGPy8EG_A14N23LO_SlepSlep_dir_225p0_165p0_2L2MET75.deriv.DAOD_PHYS.e8319_a875_r9364_p5001
mc16_13TeV.505923.MGPy8EG_A14N23LO_SlepSlep_dir_225p0_150p0_2L2MET75.deriv.DAOD_PHYS.e8319_a875_r9364_p5001
mc16_13TeV.505924.MGPy8EG_A14N23LO_SlepSlep_dir_250p0_240p0_2L2MET75.deriv.DAOD_PHYS.e8319_a875_r9364_p5001
mc16_13TeV.505925.MGPy8EG_A14N23LO_SlepSlep_dir_250p0_230p0_2L2MET75.deriv.DAOD_PHYS.e8319_a875_r9364_p5001
mc16_13TeV.505926.MGPy8EG_A14N23LO_SlepSlep_dir_250p0_220p0_2L2MET75.deriv.DAOD_PHYS.e8319_a875_r9364_p5001
mc16_13TeV.505927.MGPy8EG_A14N23LO_SlepSlep_dir_250p0_210p0_2L2MET75.deriv.DAOD_PHYS.e8319_a875_r9364_p5001
mc16_13TeV.505928.MGPy8EG_A14N23LO_SlepSlep_dir_250p0_200p0_2L2MET75.deriv.DAOD_PHYS.e8319_a875_r9364_p5001
mc16_13TeV.505929.MGPy8EG_A14N23LO_SlepSlep_dir_250p0_190p0_2L2MET75.deriv.DAOD_PHYS.e8319_a875_r9364_p5001
mc16_13TeV.505930.MGPy8EG_A14N23LO_SlepSlep_dir_250p0_175p0_2L2MET75.deriv.DAOD_PHYS.e8319_a875_r9364_p5001
mc16_13TeV.505931.MGPy8EG_A14N23LO_SlepSlep_dir_275p0_265p0_2L2MET75.deriv.DAOD_PHYS.e8319_a875_r9364_p5001
mc16_13TeV.505932.MGPy8EG_A14N23LO_SlepSlep_dir_275p0_255p0_2L2MET75.deriv.DAOD_PHYS.e8319_a875_r9364_p5001
mc16_13TeV.505933.MGPy8EG_A14N23LO_SlepSlep_dir_275p0_245p0_2L2MET75.deriv.DAOD_PHYS.e8319_a875_r9364_p5001
mc16_13TeV.505934.MGPy8EG_A14N23LO_SlepSlep_dir_275p0_235p0_2L2MET75.deriv.DAOD_PHYS.e8319_a875_r9364_p5001
mc16_13TeV.505935.MGPy8EG_A14N23LO_SlepSlep_dir_275p0_225p0_2L2MET75.deriv.DAOD_PHYS.e8319_a875_r9364_p5001
mc16_13TeV.505936.MGPy8EG_A14N23LO_SlepSlep_dir_275p0_215p0_2L2MET75.deriv.DAOD_PHYS.e8319_a875_r9364_p5001
mc16_13TeV.505937.MGPy8EG_A14N23LO_SlepSlep_dir_275p0_200p0_2L2MET75.deriv.DAOD_PHYS.e8319_a875_r9364_p5001
mc16_13TeV.505938.MGPy8EG_A14N23LO_SlepSlep_dir_300p0_290p0_2L2MET75.deriv.DAOD_PHYS.e8319_a875_r9364_p5001
mc16_13TeV.505939.MGPy8EG_A14N23LO_SlepSlep_dir_300p0_280p0_2L2MET75.deriv.DAOD_PHYS.e8319_a875_r9364_p5001
mc16_13TeV.505940.MGPy8EG_A14N23LO_SlepSlep_dir_300p0_270p0_2L2MET75.deriv.DAOD_PHYS.e8319_a875_r9364_p5001
mc16_13TeV.505941.MGPy8EG_A14N23LO_SlepSlep_dir_300p0_260p0_2L2MET75.deriv.DAOD_PHYS.e8319_a875_r9364_p5001
mc16_13TeV.505942.MGPy8EG_A14N23LO_SlepSlep_dir_300p0_250p0_2L2MET75.deriv.DAOD_PHYS.e8319_a875_r9364_p5001
mc16_13TeV.505943.MGPy8EG_A14N23LO_SlepSlep_dir_300p0_240p0_2L2MET75.deriv.DAOD_PHYS.e8319_a875_r9364_p5001
mc16_13TeV.505944.MGPy8EG_A14N23LO_SlepSlep_dir_300p0_225p0_2L2MET75.deriv.DAOD_PHYS.e8319_a875_r9364_p5001
