# NAME 		: alt_diboson2L_PowPy
# DATA 		: 0
# AF2 		: 0
# PRIORITY 	: 0

mc16_13TeV.361600.PowhegPy8EG_CT10nloME_AZNLOCTEQ6L1_WWlvlv.deriv.DAOD_SUSY16.e4616_s3126_r10724_p3652
mc16_13TeV.361604.PowhegPy8EG_CT10nloME_AZNLOCTEQ6L1_ZZvvll_mll4.deriv.DAOD_SUSY16.e4475_s3126_r10724_p3652
mc16_13TeV.361610.PowhegPy8EG_CT10nloME_AZNLOCTEQ6L1_ZZqqll_mqq20mll20.deriv.DAOD_SUSY16.e4711_s3126_r10724_p3652
mc16_13TeV.361607.PowhegPy8EG_CT10nloME_AZNLOCTEQ6L1_WZqqll_mll20.deriv.DAOD_SUSY16.e4711_s3126_r10724_p3652
