# NAME          : diboson_fullLep_strong
# Data          : 0
# AF2           : 0
# PRIORITY      : 0

mc16_13TeV.364250.Sherpa_222_NNPDF30NNLO_llll.deriv.DAOD_PHYS.e5894_s3126_r9364_p5001
mc16_13TeV.364253.Sherpa_222_NNPDF30NNLO_lllv.deriv.DAOD_PHYS.e5916_s3126_r9364_p5001
mc16_13TeV.364254.Sherpa_222_NNPDF30NNLO_llvv.deriv.DAOD_PHYS.e5916_s3126_r9364_p5001
mc16_13TeV.364255.Sherpa_222_NNPDF30NNLO_lvvv.deriv.DAOD_PHYS.e5916_s3126_r9364_p5001
mc16_13TeV.363494.Sherpa_221_NNPDF30NNLO_vvvv.deriv.DAOD_PHYS.e5332_s3126_r9364_p5001
mc16_13TeV.364288.Sherpa_222_NNPDF30NNLO_llll_lowMllPtComplement.deriv.DAOD_PHYS.e6096_s3126_r9364_p5001
mc16_13TeV.364289.Sherpa_222_NNPDF30NNLO_lllv_lowMllPtComplement.deriv.DAOD_PHYS.e6133_s3126_r9364_p5001
mc16_13TeV.364290.Sherpa_222_NNPDF30NNLO_llvv_lowMllPtComplement.deriv.DAOD_PHYS.e6096_s3126_r9364_p5001
