
# NAME 		: MGPy8EG_A14N23LO_NUHM2_mu_%5_m12_%6_C1C1_2L2MET75_MS
# DATA 		: 0
# AF2 		: 1
# PRIORITY 	: 0

mc16_13TeV.397315.MGPy8EG_A14N23LO_NUHM2_mu_90_m12_3000_C1C1_2L2MET75_MS.deriv.DAOD_SUSY16.e7222_a875_r10201_p3652
mc16_13TeV.397316.MGPy8EG_A14N23LO_NUHM2_mu_90_m12_5000_C1C1_2L2MET75_MS.deriv.DAOD_SUSY16.e7222_a875_r10201_p3652
mc16_13TeV.397317.MGPy8EG_A14N23LO_NUHM2_mu_90_m12_8000_C1C1_2L2MET75_MS.deriv.DAOD_SUSY16.e7222_a875_r10201_p3652
mc16_13TeV.397318.MGPy8EG_A14N23LO_NUHM2_mu_100_m12_800_C1C1_2L2MET75_MS.deriv.DAOD_SUSY16.e7222_a875_r10201_p3652
mc16_13TeV.397319.MGPy8EG_A14N23LO_NUHM2_mu_100_m12_1200_C1C1_2L2MET75_MS.deriv.DAOD_SUSY16.e7222_a875_r10201_p3652
mc16_13TeV.397320.MGPy8EG_A14N23LO_NUHM2_mu_100_m12_2000_C1C1_2L2MET75_MS.deriv.DAOD_SUSY16.e7222_a875_r10201_p3652
mc16_13TeV.397321.MGPy8EG_A14N23LO_NUHM2_mu_100_m12_3000_C1C1_2L2MET75_MS.deriv.DAOD_SUSY16.e7222_a875_r10201_p3652
mc16_13TeV.397322.MGPy8EG_A14N23LO_NUHM2_mu_100_m12_5000_C1C1_2L2MET75_MS.deriv.DAOD_SUSY16.e7222_a875_r10201_p3652
mc16_13TeV.397323.MGPy8EG_A14N23LO_NUHM2_mu_100_m12_8000_C1C1_2L2MET75_MS.deriv.DAOD_SUSY16.e7222_a875_r10201_p3652
mc16_13TeV.397324.MGPy8EG_A14N23LO_NUHM2_mu_110_m12_350_C1C1_2L2MET75_MS.deriv.DAOD_SUSY16.e7222_a875_r10201_p3652
mc16_13TeV.397325.MGPy8EG_A14N23LO_NUHM2_mu_110_m12_500_C1C1_2L2MET75_MS.deriv.DAOD_SUSY16.e7222_a875_r10201_p3652
mc16_13TeV.397326.MGPy8EG_A14N23LO_NUHM2_mu_110_m12_800_C1C1_2L2MET75_MS.deriv.DAOD_SUSY16.e7222_a875_r10201_p3652
mc16_13TeV.397327.MGPy8EG_A14N23LO_NUHM2_mu_110_m12_1200_C1C1_2L2MET75_MS.deriv.DAOD_SUSY16.e7222_a875_r10201_p3652
mc16_13TeV.397328.MGPy8EG_A14N23LO_NUHM2_mu_110_m12_2000_C1C1_2L2MET75_MS.deriv.DAOD_SUSY16.e7222_a875_r10201_p3652
mc16_13TeV.397329.MGPy8EG_A14N23LO_NUHM2_mu_110_m12_3000_C1C1_2L2MET75_MS.deriv.DAOD_SUSY16.e7222_a875_r10201_p3652
mc16_13TeV.397330.MGPy8EG_A14N23LO_NUHM2_mu_110_m12_5000_C1C1_2L2MET75_MS.deriv.DAOD_SUSY16.e7222_a875_r10201_p3652
mc16_13TeV.397331.MGPy8EG_A14N23LO_NUHM2_mu_110_m12_8000_C1C1_2L2MET75_MS.deriv.DAOD_SUSY16.e7222_a875_r10201_p3652
mc16_13TeV.397332.MGPy8EG_A14N23LO_NUHM2_mu_130_m12_350_C1C1_2L2MET75_MS.deriv.DAOD_SUSY16.e7222_a875_r10201_p3652
mc16_13TeV.397333.MGPy8EG_A14N23LO_NUHM2_mu_130_m12_500_C1C1_2L2MET75_MS.deriv.DAOD_SUSY16.e7222_a875_r10201_p3652
mc16_13TeV.397334.MGPy8EG_A14N23LO_NUHM2_mu_130_m12_800_C1C1_2L2MET75_MS.deriv.DAOD_SUSY16.e7222_a875_r10201_p3652
mc16_13TeV.397335.MGPy8EG_A14N23LO_NUHM2_mu_130_m12_1200_C1C1_2L2MET75_MS.deriv.DAOD_SUSY16.e7222_a875_r10201_p3652
mc16_13TeV.397336.MGPy8EG_A14N23LO_NUHM2_mu_130_m12_2000_C1C1_2L2MET75_MS.deriv.DAOD_SUSY16.e7222_a875_r10201_p3652
mc16_13TeV.397337.MGPy8EG_A14N23LO_NUHM2_mu_130_m12_3000_C1C1_2L2MET75_MS.deriv.DAOD_SUSY16.e7222_a875_r10201_p3652
mc16_13TeV.397338.MGPy8EG_A14N23LO_NUHM2_mu_130_m12_5000_C1C1_2L2MET75_MS.deriv.DAOD_SUSY16.e7222_a875_r10201_p3652
mc16_13TeV.397339.MGPy8EG_A14N23LO_NUHM2_mu_130_m12_8000_C1C1_2L2MET75_MS.deriv.DAOD_SUSY16.e7222_a875_r10201_p3652
mc16_13TeV.397340.MGPy8EG_A14N23LO_NUHM2_mu_150_m12_350_C1C1_2L2MET75_MS.deriv.DAOD_SUSY16.e7222_a875_r10201_p3652
mc16_13TeV.397341.MGPy8EG_A14N23LO_NUHM2_mu_150_m12_500_C1C1_2L2MET75_MS.deriv.DAOD_SUSY16.e7222_a875_r10201_p3652
mc16_13TeV.397342.MGPy8EG_A14N23LO_NUHM2_mu_150_m12_800_C1C1_2L2MET75_MS.deriv.DAOD_SUSY16.e7222_a875_r10201_p3652
mc16_13TeV.397343.MGPy8EG_A14N23LO_NUHM2_mu_150_m12_1200_C1C1_2L2MET75_MS.deriv.DAOD_SUSY16.e7222_a875_r10201_p3652
mc16_13TeV.397344.MGPy8EG_A14N23LO_NUHM2_mu_150_m12_2000_C1C1_2L2MET75_MS.deriv.DAOD_SUSY16.e7222_a875_r10201_p3652
mc16_13TeV.397345.MGPy8EG_A14N23LO_NUHM2_mu_150_m12_3000_C1C1_2L2MET75_MS.deriv.DAOD_SUSY16.e7222_a875_r10201_p3652
mc16_13TeV.397346.MGPy8EG_A14N23LO_NUHM2_mu_150_m12_5000_C1C1_2L2MET75_MS.deriv.DAOD_SUSY16.e7222_a875_r10201_p3652
mc16_13TeV.397347.MGPy8EG_A14N23LO_NUHM2_mu_150_m12_8000_C1C1_2L2MET75_MS.deriv.DAOD_SUSY16.e7222_a875_r10201_p3652
mc16_13TeV.397348.MGPy8EG_A14N23LO_NUHM2_mu_170_m12_350_C1C1_2L2MET75_MS.deriv.DAOD_SUSY16.e7222_a875_r10201_p3652
mc16_13TeV.397349.MGPy8EG_A14N23LO_NUHM2_mu_170_m12_500_C1C1_2L2MET75_MS.deriv.DAOD_SUSY16.e7222_a875_r10201_p3652
mc16_13TeV.397350.MGPy8EG_A14N23LO_NUHM2_mu_170_m12_800_C1C1_2L2MET75_MS.deriv.DAOD_SUSY16.e7222_a875_r10201_p3652
mc16_13TeV.397351.MGPy8EG_A14N23LO_NUHM2_mu_170_m12_1200_C1C1_2L2MET75_MS.deriv.DAOD_SUSY16.e7222_a875_r10201_p3652
mc16_13TeV.397352.MGPy8EG_A14N23LO_NUHM2_mu_170_m12_2000_C1C1_2L2MET75_MS.deriv.DAOD_SUSY16.e7222_a875_r10201_p3652
mc16_13TeV.397353.MGPy8EG_A14N23LO_NUHM2_mu_170_m12_3000_C1C1_2L2MET75_MS.deriv.DAOD_SUSY16.e7222_a875_r10201_p3652
mc16_13TeV.397354.MGPy8EG_A14N23LO_NUHM2_mu_170_m12_5000_C1C1_2L2MET75_MS.deriv.DAOD_SUSY16.e7222_a875_r10201_p3652
mc16_13TeV.397355.MGPy8EG_A14N23LO_NUHM2_mu_200_m12_350_C1C1_2L2MET75_MS.deriv.DAOD_SUSY16.e7222_a875_r10201_p3652
mc16_13TeV.397356.MGPy8EG_A14N23LO_NUHM2_mu_200_m12_500_C1C1_2L2MET75_MS.deriv.DAOD_SUSY16.e7222_a875_r10201_p3652
mc16_13TeV.397357.MGPy8EG_A14N23LO_NUHM2_mu_200_m12_800_C1C1_2L2MET75_MS.deriv.DAOD_SUSY16.e7222_a875_r10201_p3652
mc16_13TeV.397358.MGPy8EG_A14N23LO_NUHM2_mu_200_m12_1200_C1C1_2L2MET75_MS.deriv.DAOD_SUSY16.e7222_a875_r10201_p3652
mc16_13TeV.397359.MGPy8EG_A14N23LO_NUHM2_mu_200_m12_2000_C1C1_2L2MET75_MS.deriv.DAOD_SUSY16.e7222_a875_r10201_p3652
mc16_13TeV.397360.MGPy8EG_A14N23LO_NUHM2_mu_200_m12_3000_C1C1_2L2MET75_MS.deriv.DAOD_SUSY16.e7222_a875_r10201_p3652
mc16_13TeV.397361.MGPy8EG_A14N23LO_NUHM2_mu_200_m12_5000_C1C1_2L2MET75_MS.deriv.DAOD_SUSY16.e7222_a875_r10201_p3652
