
# NAME 		: MGPy8EG_A14N23LO_SM_N2C1pWBVBFQED_%5_%6_2L2MET75_MadSpin
# DATA 		: 0
# AF2 		: 1
# PRIORITY 	: 0

mc16_13TeV.396555.MGPy8EG_A14N23LO_SM_N2C1pWBVBFQED_113_110_2L2MET75_MadSpin.deriv.DAOD_SUSY16.e7034_a875_r10201_p3652
mc16_13TeV.396556.MGPy8EG_A14N23LO_SM_N2C1pWBVBFQED_120_110_2L2MET75_MadSpin.deriv.DAOD_SUSY16.e7034_a875_r10201_p3652
mc16_13TeV.396557.MGPy8EG_A14N23LO_SM_N2C1pWBVBFQED_140_110_2L2MET75_MadSpin.deriv.DAOD_SUSY16.e7034_a875_r10201_p3652
mc16_13TeV.396558.MGPy8EG_A14N23LO_SM_N2C1pWBVBFQED_150_110_2L2MET75_MadSpin.deriv.DAOD_SUSY16.e7034_a875_r10201_p3652
mc16_13TeV.396559.MGPy8EG_A14N23LO_SM_N2C1pWBVBFQED_170_140_2L2MET75_MadSpin.deriv.DAOD_SUSY16.e7034_a875_r10201_p3652
mc16_13TeV.396560.MGPy8EG_A14N23LO_SM_N2C1pWBVBFQED_180_140_2L2MET75_MadSpin.deriv.DAOD_SUSY16.e7034_a875_r10201_p3652
