
# NAME 		: MGPy8EG_A14N23LO_SM_C1C1_%5_%6_2L2MET75_MadSpin
# DATA 		: 0
# AF2 		: 1
# PRIORITY 	: 0

mc16_13TeV.395170.MGPy8EG_A14N23LO_SM_C1C1_100_60_2L2MET75_MadSpin.deriv.DAOD_SUSY16.e6588_a875_r10201_p3652
mc16_13TeV.395172.MGPy8EG_A14N23LO_SM_C1C1_82_80_2L2MET75_MadSpin.deriv.DAOD_SUSY16.e6708_a875_r10201_p3652
mc16_13TeV.395173.MGPy8EG_A14N23LO_SM_C1C1_83_80_2L2MET75_MadSpin.deriv.DAOD_SUSY16.e6588_a875_r10201_p3652
mc16_13TeV.395174.MGPy8EG_A14N23LO_SM_C1C1_85_80_2L2MET75_MadSpin.deriv.DAOD_SUSY16.e6588_a875_r10201_p3652
mc16_13TeV.395175.MGPy8EG_A14N23LO_SM_C1C1_90_80_2L2MET75_MadSpin.deriv.DAOD_SUSY16.e6588_a875_r10201_p3652
mc16_13TeV.395176.MGPy8EG_A14N23LO_SM_C1C1_95_80_2L2MET75_MadSpin.deriv.DAOD_SUSY16.e6708_a875_r10201_p3652
mc16_13TeV.395177.MGPy8EG_A14N23LO_SM_C1C1_100_80_2L2MET75_MadSpin.deriv.DAOD_SUSY16.e6708_a875_r10201_p3652
mc16_13TeV.395178.MGPy8EG_A14N23LO_SM_C1C1_110_80_2L2MET75_MadSpin.deriv.DAOD_SUSY16.e6588_a875_r10201_p3652
mc16_13TeV.395179.MGPy8EG_A14N23LO_SM_C1C1_120_80_2L2MET75_MadSpin.deriv.DAOD_SUSY16.e6588_a875_r10201_p3652
mc16_13TeV.395181.MGPy8EG_A14N23LO_SM_C1C1_102_100_2L2MET75_MadSpin.deriv.DAOD_SUSY16.e6708_a875_r10201_p3652
mc16_13TeV.395182.MGPy8EG_A14N23LO_SM_C1C1_103_100_2L2MET75_MadSpin.deriv.DAOD_SUSY16.e6708_a875_r10201_p3652
mc16_13TeV.395183.MGPy8EG_A14N23LO_SM_C1C1_105_100_2L2MET75_MadSpin.deriv.DAOD_SUSY16.e6588_a875_r10201_p3652
mc16_13TeV.395184.MGPy8EG_A14N23LO_SM_C1C1_110_100_2L2MET75_MadSpin.deriv.DAOD_SUSY16.e6588_a875_r10201_p3652
mc16_13TeV.395185.MGPy8EG_A14N23LO_SM_C1C1_115_100_2L2MET75_MadSpin.deriv.DAOD_SUSY16.e6588_a875_r10201_p3652
mc16_13TeV.395186.MGPy8EG_A14N23LO_SM_C1C1_120_100_2L2MET75_MadSpin.deriv.DAOD_SUSY16.e6588_a875_r10201_p3652
mc16_13TeV.395187.MGPy8EG_A14N23LO_SM_C1C1_130_100_2L2MET75_MadSpin.deriv.DAOD_SUSY16.e6588_a875_r10201_p3652
mc16_13TeV.395188.MGPy8EG_A14N23LO_SM_C1C1_140_100_2L2MET75_MadSpin.deriv.DAOD_SUSY16.e6588_a875_r10201_p3652
mc16_13TeV.395190.MGPy8EG_A14N23LO_SM_C1C1_127_125_2L2MET75_MadSpin.deriv.DAOD_SUSY16.e6708_a875_r10201_p3652
mc16_13TeV.395191.MGPy8EG_A14N23LO_SM_C1C1_128_125_2L2MET75_MadSpin.deriv.DAOD_SUSY16.e6708_a875_r10201_p3652
mc16_13TeV.395192.MGPy8EG_A14N23LO_SM_C1C1_130_125_2L2MET75_MadSpin.deriv.DAOD_SUSY16.e6588_a875_r10201_p3652
mc16_13TeV.395193.MGPy8EG_A14N23LO_SM_C1C1_135_125_2L2MET75_MadSpin.deriv.DAOD_SUSY16.e6588_a875_r10201_p3652
mc16_13TeV.395194.MGPy8EG_A14N23LO_SM_C1C1_140_125_2L2MET75_MadSpin.deriv.DAOD_SUSY16.e6588_a875_r10201_p3652
mc16_13TeV.395195.MGPy8EG_A14N23LO_SM_C1C1_145_125_2L2MET75_MadSpin.deriv.DAOD_SUSY16.e6588_a875_r10201_p3652
mc16_13TeV.395196.MGPy8EG_A14N23LO_SM_C1C1_155_125_2L2MET75_MadSpin.deriv.DAOD_SUSY16.e6588_a875_r10201_p3652
mc16_13TeV.395197.MGPy8EG_A14N23LO_SM_C1C1_165_125_2L2MET75_MadSpin.deriv.DAOD_SUSY16.e6588_a875_r10201_p3652
mc16_13TeV.395199.MGPy8EG_A14N23LO_SM_C1C1_152_150_2L2MET75_MadSpin.deriv.DAOD_SUSY16.e6708_a875_r10201_p3652
mc16_13TeV.395200.MGPy8EG_A14N23LO_SM_C1C1_153_150_2L2MET75_MadSpin.deriv.DAOD_SUSY16.e6708_a875_r10201_p3652
mc16_13TeV.395201.MGPy8EG_A14N23LO_SM_C1C1_155_150_2L2MET75_MadSpin.deriv.DAOD_SUSY16.e6708_a875_r10201_p3652
mc16_13TeV.395202.MGPy8EG_A14N23LO_SM_C1C1_160_150_2L2MET75_MadSpin.deriv.DAOD_SUSY16.e6588_a875_r10201_p3652
mc16_13TeV.395203.MGPy8EG_A14N23LO_SM_C1C1_165_150_2L2MET75_MadSpin.deriv.DAOD_SUSY16.e6588_a875_r10201_p3652
mc16_13TeV.395204.MGPy8EG_A14N23LO_SM_C1C1_170_150_2L2MET75_MadSpin.deriv.DAOD_SUSY16.e6588_a875_r10201_p3652
mc16_13TeV.395205.MGPy8EG_A14N23LO_SM_C1C1_180_150_2L2MET75_MadSpin.deriv.DAOD_SUSY16.e6588_a875_r10201_p3652
mc16_13TeV.395206.MGPy8EG_A14N23LO_SM_C1C1_190_150_2L2MET75_MadSpin.deriv.DAOD_SUSY16.e6708_a875_r10201_p3652
mc16_13TeV.395208.MGPy8EG_A14N23LO_SM_C1C1_202_200_2L2MET75_MadSpin.deriv.DAOD_SUSY16.e6708_a875_r10201_p3652
mc16_13TeV.395209.MGPy8EG_A14N23LO_SM_C1C1_203_200_2L2MET75_MadSpin.deriv.DAOD_SUSY16.e6708_a875_r10201_p3652
mc16_13TeV.395210.MGPy8EG_A14N23LO_SM_C1C1_205_200_2L2MET75_MadSpin.deriv.DAOD_SUSY16.e6588_a875_r10201_p3652
mc16_13TeV.395211.MGPy8EG_A14N23LO_SM_C1C1_210_200_2L2MET75_MadSpin.deriv.DAOD_SUSY16.e6588_a875_r10201_p3652
mc16_13TeV.395212.MGPy8EG_A14N23LO_SM_C1C1_215_200_2L2MET75_MadSpin.deriv.DAOD_SUSY16.e6708_a875_r10201_p3652
mc16_13TeV.395213.MGPy8EG_A14N23LO_SM_C1C1_220_200_2L2MET75_MadSpin.deriv.DAOD_SUSY16.e6588_a875_r10201_p3652
mc16_13TeV.395214.MGPy8EG_A14N23LO_SM_C1C1_230_200_2L2MET75_MadSpin.deriv.DAOD_SUSY16.e6588_a875_r10201_p3652
mc16_13TeV.395215.MGPy8EG_A14N23LO_SM_C1C1_240_200_2L2MET75_MadSpin.deriv.DAOD_SUSY16.e6588_a875_r10201_p3652
mc16_13TeV.395217.MGPy8EG_A14N23LO_SM_C1C1_252_250_2L2MET75_MadSpin.deriv.DAOD_SUSY16.e6708_a875_r10201_p3652
mc16_13TeV.395218.MGPy8EG_A14N23LO_SM_C1C1_253_250_2L2MET75_MadSpin.deriv.DAOD_SUSY16.e6588_a875_r10201_p3652
mc16_13TeV.395219.MGPy8EG_A14N23LO_SM_C1C1_255_250_2L2MET75_MadSpin.deriv.DAOD_SUSY16.e6708_a875_r10201_p3652
mc16_13TeV.395220.MGPy8EG_A14N23LO_SM_C1C1_260_250_2L2MET75_MadSpin.deriv.DAOD_SUSY16.e6588_a875_r10201_p3652
mc16_13TeV.395221.MGPy8EG_A14N23LO_SM_C1C1_265_250_2L2MET75_MadSpin.deriv.DAOD_SUSY16.e6588_a875_r10201_p3652
mc16_13TeV.395222.MGPy8EG_A14N23LO_SM_C1C1_270_250_2L2MET75_MadSpin.deriv.DAOD_SUSY16.e6588_a875_r10201_p3652
mc16_13TeV.395223.MGPy8EG_A14N23LO_SM_C1C1_280_250_2L2MET75_MadSpin.deriv.DAOD_SUSY16.e6588_a875_r10201_p3652
mc16_13TeV.395224.MGPy8EG_A14N23LO_SM_C1C1_290_250_2L2MET75_MadSpin.deriv.DAOD_SUSY16.e6588_a875_r10201_p3652
mc16_13TeV.396911.MGPy8EG_A14N23LO_SM_C1C1_101p5_100_2L2MET75_MadSpin.deriv.DAOD_SUSY16.e7025_a875_r10201_p3652
mc16_13TeV.395171.MGPy8EG_A14N23LO_SM_C1C1_120_60_2L2MET75_MadSpin.deriv.DAOD_SUSY16.e6980_a875_r10201_p3652
mc16_13TeV.396919.MGPy8EG_A14N23LO_SM_C1C1_126p5_125_2L2MET75_MadSpin.deriv.DAOD_SUSY16.e7025_a875_r10201_p3652
mc16_13TeV.395180.MGPy8EG_A14N23LO_SM_C1C1_140_80_2L2MET75_MadSpin.deriv.DAOD_SUSY16.e6980_a875_r10201_p3652
mc16_13TeV.395189.MGPy8EG_A14N23LO_SM_C1C1_160_100_2L2MET75_MadSpin.deriv.DAOD_SUSY16.e6980_a875_r10201_p3652
mc16_13TeV.396923.MGPy8EG_A14N23LO_SM_C1C1_178_175_2L2MET75_MadSpin.deriv.DAOD_SUSY16.e6980_a875_r10201_p3652
mc16_13TeV.396927.MGPy8EG_A14N23LO_SM_C1C1_180_175_2L2MET75_MadSpin.deriv.DAOD_SUSY16.e6980_a875_r10201_p3652
mc16_13TeV.396931.MGPy8EG_A14N23LO_SM_C1C1_185_175_2L2MET75_MadSpin.deriv.DAOD_SUSY16.e6980_a875_r10201_p3652
mc16_13TeV.396935.MGPy8EG_A14N23LO_SM_C1C1_190_175_2L2MET75_MadSpin.deriv.DAOD_SUSY16.e6980_a875_r10201_p3652
mc16_13TeV.396939.MGPy8EG_A14N23LO_SM_C1C1_195_175_2L2MET75_MadSpin.deriv.DAOD_SUSY16.e6980_a875_r10201_p3652
mc16_13TeV.396943.MGPy8EG_A14N23LO_SM_C1C1_230_225_2L2MET75_MadSpin.deriv.DAOD_SUSY16.e6980_a875_r10201_p3652
mc16_13TeV.396947.MGPy8EG_A14N23LO_SM_C1C1_235_225_2L2MET75_MadSpin.deriv.DAOD_SUSY16.e6980_a875_r10201_p3652
mc16_13TeV.396951.MGPy8EG_A14N23LO_SM_C1C1_240_225_2L2MET75_MadSpin.deriv.DAOD_SUSY16.e6980_a875_r10201_p3652
mc16_13TeV.396915.MGPy8EG_A14N23LO_SM_C1C1_81p5_80_2L2MET75_MadSpin.deriv.DAOD_SUSY16.e7025_a875_r10201_p3652
