# NAME          : All_Samples
# Data          : 0
# AF2           : 0
# PRIORITY      : 0

user.silu.27078921.EXT0._000002.DAOD_SUSY20.batch_result.pool.root
user.silu.27078921.EXT0._000006.DAOD_SUSY20.batch_result.pool.root
user.silu.27078921.EXT0._000007.DAOD_SUSY20.batch_result.pool.root
user.silu.27078921.EXT0._000010.DAOD_SUSY20.batch_result.pool.root
user.silu.27078921.EXT0._000013.DAOD_SUSY20.batch_result.pool.root
user.silu.27078921.EXT0._000019.DAOD_SUSY20.batch_result.pool.root
