
# NAME 		 : EW_Vjets_Sh221_TChan 
# DATA 		 : 0 
# AF2 		 : 0 
# PRIORITY 	 : 0 

mc16_13TeV.308092.Sherpa_221_NNPDF30NNLO_Zee2jets_Min_N_TChannel.deriv.DAOD_EXOT5.e5767_s3126_r10724_p4060
mc16_13TeV.308093.Sherpa_221_NNPDF30NNLO_Zmm2jets_Min_N_TChannel.deriv.DAOD_EXOT5.e5767_s3126_r10724_p4060
mc16_13TeV.308094.Sherpa_221_NNPDF30NNLO_Ztautau2jets_Min_N_TChannel.deriv.DAOD_EXOT5.e5767_s3126_r10724_p4060
mc16_13TeV.308095.Sherpa_221_NNPDF30NNLO_Znunu2jets_Min_N_TChannel.deriv.DAOD_EXOT5.e5789_s3126_r10724_p4060
mc16_13TeV.308096.Sherpa_221_NNPDF30NNLO_Wenu2jets_Min_N_TChannel.deriv.DAOD_EXOT5.e5789_s3126_r10724_p4060
mc16_13TeV.308097.Sherpa_221_NNPDF30NNLO_Wmunu2jets_Min_N_TChannel.deriv.DAOD_EXOT5.e5767_s3126_r10724_p4060
mc16_13TeV.308098.Sherpa_221_NNPDF30NNLO_Wtaunu2jets_Min_N_TChannel.deriv.DAOD_EXOT5.e5767_s3126_r10724_p4060