
# NAME 		 : SingleTop_Wt_DR_inclusive 
# DATA 		 : 0 
# AF2 		 : 0 
# PRIORITY 	 : 0 

mc16_13TeV.410646.PowhegPythia8EvtGen_A14_Wt_DR_inclusive_top.deriv.DAOD_EXOT5.e6552_s3126_r10724_p4060
mc16_13TeV.410647.PowhegPythia8EvtGen_A14_Wt_DR_inclusive_antitop.deriv.DAOD_EXOT5.e6552_s3126_r10724_p4060