
# NAME 		 : Strong_Znunu_jets_Sh221_pTV 
# DATA 		 : 0 
# AF2 		 : 0 
# PRIORITY 	 : 0 

mc16_13TeV.364222.Sherpa_221_NNPDF30NNLO_Znunu_PTV500_1000.deriv.DAOD_EXOT5.e5626_s3126_r10724_p4060
mc16_13TeV.364223.Sherpa_221_NNPDF30NNLO_Znunu_PTV1000_E_CMS.deriv.DAOD_EXOT5.e5626_s3126_r10724_p4060