
# NAME 		 : ttbar_incl 
# DATA 		 : 0 
# AF2 		 : 0 
# PRIORITY 	 : 0 

mc16_13TeV:mc16_13TeV.410470.PhPy8EG_A14_ttbar_hdamp258p75_nonallhad.deriv.DAOD_EXOT5.e6337_s3126_r10724_p4060
mc16_13TeV:mc16_13TeV.410471.PhPy8EG_A14_ttbar_hdamp258p75_allhad.deriv.DAOD_EXOT5.e6337_s3126_r10724_p4060