
# NAME 		: alt_diboson1L_PowPy
# DATA 		: 0
# AF2 		: 0
# PRIORITY 	: 0

mc16_13TeV.361606.PowhegPy8EG_CT10nloME_AZNLOCTEQ6L1_WWlvqq.deriv.DAOD_SUSY16.e4711_s3126_r9364_r9315_p3387
mc16_13TeV.361609.PowhegPy8EG_CT10nloME_AZNLOCTEQ6L1_WZlvqq_mqq20.deriv.DAOD_SUSY16.e4711_s3126_r9364_r9315_p3387
mc16_13TeV.361602.PowhegPy8EG_CT10nloME_AZNLOCTEQ6L1_WZlvvv_mll4.deriv.DAOD_SUSY16.e4054_s3126_r9364_r9315_p3387
