
# NAME 		: diboson0L
# DATA 		: 0
# AF2 		: 0
# PRIORITY 	: 0

mc16_13TeV.363355.Sherpa_221_NNPDF30NNLO_ZqqZvv.deriv.DAOD_SUSY16.e5525_s3126_r9364_r9315_p3387
mc16_13TeV.363357.Sherpa_221_NNPDF30NNLO_WqqZvv.deriv.DAOD_SUSY16.e5525_s3126_r9364_r9315_p3387
mc16_13TeV.363494.Sherpa_221_NNPDF30NNLO_vvvv.deriv.DAOD_SUSY16.e5332_s3126_r9364_r9315_p3387
mc16_13TeV.364303.Sherpa_222_NNPDF30NNLO_ggZvvZqq.deriv.DAOD_SUSY16.e6273_e5984_s3126_r9364_r9315_p3387
