
# NAME 		: Wgamma
# DATA 		: 0
# AF2 		: 0
# PRIORITY 	: 0

mc16_13TeV.364521.Sherpa_222_NNPDF30NNLO_enugamma_pty_7_15.deriv.DAOD_SUSY16.e5928_s3126_r9364_r9315_p3387
mc16_13TeV.364522.Sherpa_222_NNPDF30NNLO_enugamma_pty_15_35.deriv.DAOD_SUSY16.e5928_s3126_r9364_r9315_p3387
mc16_13TeV.364523.Sherpa_222_NNPDF30NNLO_enugamma_pty_35_70.deriv.DAOD_SUSY16.e5928_s3126_r9364_r9315_p3387
mc16_13TeV.364524.Sherpa_222_NNPDF30NNLO_enugamma_pty_70_140.deriv.DAOD_SUSY16.e5928_s3126_r9364_r9315_p3387
mc16_13TeV.364525.Sherpa_222_NNPDF30NNLO_enugamma_pty_140_E_CMS.deriv.DAOD_SUSY16.e5928_s3126_r9364_r9315_p3387
mc16_13TeV.364526.Sherpa_222_NNPDF30NNLO_munugamma_pty_7_15.deriv.DAOD_SUSY16.e5928_s3126_r9364_r9315_p3387
mc16_13TeV.364527.Sherpa_222_NNPDF30NNLO_munugamma_pty_15_35.deriv.DAOD_SUSY16.e5928_s3126_r9364_r9315_p3387
mc16_13TeV.364528.Sherpa_222_NNPDF30NNLO_munugamma_pty_35_70.deriv.DAOD_SUSY16.e5928_s3126_r9364_r9315_p3387
mc16_13TeV.364529.Sherpa_222_NNPDF30NNLO_munugamma_pty_70_140.deriv.DAOD_SUSY16.e5928_s3126_r9364_r9315_p3387
mc16_13TeV.364530.Sherpa_222_NNPDF30NNLO_munugamma_pty_140_E_CMS.deriv.DAOD_SUSY16.e5928_s3126_r9364_r9315_p3387
mc16_13TeV.364531.Sherpa_222_NNPDF30NNLO_taunugamma_pty_7_15.deriv.DAOD_SUSY16.e5928_s3126_r9364_r9315_p3387
mc16_13TeV.364532.Sherpa_222_NNPDF30NNLO_taunugamma_pty_15_35.deriv.DAOD_SUSY16.e5928_s3126_r9364_r9315_p3387
mc16_13TeV.364533.Sherpa_222_NNPDF30NNLO_taunugamma_pty_35_70.deriv.DAOD_SUSY16.e5928_s3126_r9364_r9315_p3387
mc16_13TeV.364534.Sherpa_222_NNPDF30NNLO_taunugamma_pty_70_140.deriv.DAOD_SUSY16.e5928_s3126_r9364_r9315_p3387
mc16_13TeV.364535.Sherpa_222_NNPDF30NNLO_taunugamma_pty_140_E_CMS.deriv.DAOD_SUSY16.e5928_s3126_r9364_r9315_p3387
