# NAME          : diboson_semiLep_strong
# Data          : 0
# AF2           : 0
# PRIORITY      : 0

mc16_13TeV.363355.Sherpa_221_NNPDF30NNLO_ZqqZvv.deriv.DAOD_PHYS.e5525_s3126_r10724_p5001
mc16_13TeV.363356.Sherpa_221_NNPDF30NNLO_ZqqZll.deriv.DAOD_PHYS.e5525_s3126_r10724_p5001
mc16_13TeV.363357.Sherpa_221_NNPDF30NNLO_WqqZvv.deriv.DAOD_PHYS.e5525_s3126_r10724_p5001
mc16_13TeV.363358.Sherpa_221_NNPDF30NNLO_WqqZll.deriv.DAOD_PHYS.e5525_s3126_r10724_p5001
mc16_13TeV.363359.Sherpa_221_NNPDF30NNLO_WpqqWmlv.deriv.DAOD_PHYS.e5583_s3126_r10724_p5001
mc16_13TeV.363360.Sherpa_221_NNPDF30NNLO_WplvWmqq.deriv.DAOD_PHYS.e5983_s3126_r10724_p5001
mc16_13TeV.363489.Sherpa_221_NNPDF30NNLO_WlvZqq.deriv.DAOD_PHYS.e5525_s3126_r10724_p5001
