# NAME          : Zlljets
# Data          : 0
# AF2           : 0
# PRIORITY      : 0

mc16_13TeV.700320.Sh_2211_Zee_maxHTpTV2_BFilter.deriv.DAOD_PHYS.e8351_s3126_r10724_p5001
mc16_13TeV.700321.Sh_2211_Zee_maxHTpTV2_CFilterBVeto.deriv.DAOD_PHYS.e8351_s3126_r10724_p5001
mc16_13TeV.700322.Sh_2211_Zee_maxHTpTV2_CVetoBVeto.deriv.DAOD_PHYS.e8351_s3126_r10724_p5001
mc16_13TeV.700323.Sh_2211_Zmumu_maxHTpTV2_BFilter.deriv.DAOD_PHYS.e8351_s3126_r10724_p5001
mc16_13TeV.700324.Sh_2211_Zmumu_maxHTpTV2_CFilterBVeto.deriv.DAOD_PHYS.e8351_s3126_r10724_p5001
mc16_13TeV.700325.Sh_2211_Zmumu_maxHTpTV2_CVetoBVeto.deriv.DAOD_PHYS.e8351_s3126_r10724_p5001
