mSUSY,deltaM
74.416,0.686
79.023,0.736
83.765,0.790
88.914,0.841
94.063,0.889
99.213,0.936
104.634,0.977
109.919,1.026
114.932,1.093
119.878,1.166
124.620,1.256
128.954,1.370
133.356,1.489
138.370,1.590
143.655,1.670
148.805,1.760
154.158,1.836
159.647,1.911
165.000,1.991
170.218,2.093
175.231,2.234
179.973,2.401
184.715,2.581
189.456,2.781
194.130,3.008
198.600,3.262
204.022,3.394
209.375,3.532
213.710,3.851
217.637,4.251
221.496,4.689
224.813,5.195
226.537,5.954
228.258,6.768
230.489,7.680
232.788,8.698
233.664,9.776
228.983,10.534
223.829,11.099
218.810,11.813
213.790,12.626
208.974,13.534
204.090,14.506
199.274,15.576
194.660,16.866
190.726,17.703
185.436,18.671
180.282,19.693
174.992,20.558
169.365,21.007
163.805,21.579
158.178,21.920
152.551,22.319
147.329,23.456
142.107,24.560
136.547,25.290
130.987,25.958
125.427,26.609
119.867,27.218
114.532,27.889
108.747,28.983
103.662,29.747
101.357,29.800
97.9,29.800
