mSUSY,deltaM
127.8563,11.9718
129.7849,11.6886
132.8438,11.2900
137.8312,10.9755
140.8048,10.7922
142.8187,10.6667
147.8063,10.3709
151.2755,9.9646
152.7938,9.5063
153.5631,9.2004
155.4485,8.4948
157.3220,7.8433
157.7812,7.6897
159.1927,7.2418
161.0773,6.6864
162.7687,6.2202
162.9730,6.1736
165.3227,5.7002
167.7562,5.3075
168.2574,5.2630
170.6187,4.8594
169.0236,4.4867
168.2506,4.1426
167.7562,3.8519
167.7168,3.8249
167.2547,3.5316
166.7623,3.2607
166.2114,3.0107
162.7687,2.8780
159.3158,2.7798
157.7812,2.7382
152.7938,2.6074
151.6807,2.5666
148.2059,2.3698
147.8063,2.3406
145.6337,2.1880
143.0616,2.0202
142.8187,2.0139
137.8312,1.9320
133.4666,1.8653
132.8438,1.8569
127.8563,1.7908
124.6585,1.7222
122.8688,1.6753
118.9687,1.5902
117.8812,1.5670
112.8938,1.4778
111.9389,1.4682
107.9062,1.4367
102.9188,1.4248
98.6180,1.3556
97.9313,1.3451
92.9438,1.2641
92.2337,1.2516
87.9563,1.1793
86.5899,1.1557
82.9688,1.0951
81.2177,1.0670
77.9813,1.0157
75.9799,0.9852
72.9938,0.9360
72.5354,0.9852
71.9066,1.0670
71.6118,1.1557
71.3605,1.2516
71.1419,1.3556
70.9501,1.4682
70.7804,1.5902
70.6292,1.7222
70.4936,1.8653
70.3714,2.0202
70.2606,2.1880
72.9938,2.2858
75.1539,2.3698
75.0611,2.5666
74.9760,2.7798
74.8976,3.0107
74.8251,3.2607
74.7580,3.5316
74.6956,3.8249
74.6374,4.1426
74.6238,4.4867
74.5754,4.8594
74.5740,5.2630
74.6117,5.7002
74.6512,6.1736
74.6928,6.6864
74.7364,7.2418
74.8065,7.8433
77.9813,8.2520
79.9130,8.4948
79.9796,9.2004
80.0560,9.9646
80.1656,10.7922
80.2779,11.6886
80.3968,12.6595
80.4749,13.7110
80.7144,14.8499
80.7504,16.0833
80.7899,17.4192
82.9688,18.0371
86.7695,18.8661
87.0793,20.4332
87.2471,22.1304
87.3850,23.9685
87.9563,25.2615
90.1902,23.9685
91.6096,22.1304
92.9438,21.0500
94.2284,20.4332
96.3487,18.8661
97.9313,17.7586
98.4406,17.4192
101.1098,16.0833
102.9188,15.1828
104.4783,14.8499
107.9062,14.3277
112.8938,14.3467
117.8812,13.7303
117.9830,13.7110
122.8688,12.8257
123.8128,12.6595
127.8563,11.9718
