mSlepLH2gen,mN1
198.196,127.048
208.605,134.156
215.821,139.349
221.100,143.371
225.222,146.192
231.391,150.070
240.458,156.244
244.219,159.173
247.489,161.746
252.325,166.140
259.264,172.359
271.756,179.467
280.083,184.798
284.941,189.240
289.648,191.900
292.831,193.011
299.486,195.327
304.116,196.901
307.347,198.136
319.202,200.375
322.635,201.495
329.868,203.905
334.498,205.366
339.128,206.961
346.940,210.121
351.570,213.783
355.910,219.564
360.829,228.077
365.459,231.758
369.770,233.909
374.718,238.476
379.473,243.250
383.872,244.602
388.029,245.399
394.973,246.495
398.156,247.282
404.811,248.277
409.441,248.949
412.768,249.699
419.858,250.685
424.487,251.855
428.554,254.403
433.168,259.460
438.087,269.167
442.138,269.663
450.198,268.490
454.580,267.795
457.908,267.180
464.707,265.851
469.337,266.534
472.665,268.053
478.886,271.569
483.516,272.970
487.422,272.220
494.800,270.273
497.983,269.107
504.638,264.450
508.111,261.984
514.187,257.348
518.817,254.237
522.434,251.254
528.076,245.248
531.982,241.237
537.625,234.640
542.254,229.396
546.884,223.960
551.176,219.128
555.565,213.255
558.458,207.479
560.339,200.881
561.745,194.631
562.133,188.970
563.146,181.619
564.043,172.255
564.933,164.775
565.620,157.903
566.524,150.235
567.175,142.345
567.541,133.437
568.007,124.312
568.362,114.479
568.586,105.260
568.689,99.592
568.333,91.784
568.152,83.495
568.007,75.518
568.007,70.208
568.110,62.098
567.862,56.939
567.428,50.489
566.126,43.786
564.123,35.247
565.130,26.140
566.416,19.829
567.702,12.336
568.586,7.048
568.875,2.725
568.875,-1.0
198.196,-1.0
