mSUSY,deltaM
113.7962,12.8417
116.8479,12.1771
117.5826,12.0250
121.5275,11.2083
125.4724,10.3917
129.3574,9.5750
130.0471,9.4279
133.1871,8.7583
137.0168,7.9417
140.8540,7.1250
143.3295,6.5955
144.6763,6.3083
148.5484,5.4917
149.2425,4.6750
145.8496,4.0754
144.6737,3.8583
140.9972,3.0417
136.8399,2.6351
133.0324,2.2250
126.9312,2.0938
116.7183,1.8567
106.4638,1.6612
96.8015,1.4083
96.2773,1.3977
86.0503,1.1747
82.8277,1.4083
79.2689,2.2250
77.9484,3.0417
83.6961,3.5289
88.1492,3.8583
87.2291,4.6750
86.5098,5.4917
85.9402,6.3083
85.3975,7.1250
84.8865,7.9417
84.4129,8.7583
88.5647,9.1103
95.1655,9.5750
94.6594,10.3917
94.1188,11.2083
93.5997,12.0250
93.1047,12.8417
92.6368,13.6583
94.3237,13.8013
103.5226,14.4750
103.2068,15.2917
103.1655,15.4095
103.6283,15.2917
106.8406,14.4750
110.2276,13.6583
113.7962,12.8417
