
# NAME 		: MGPy8EG_A14N23LO_SM_N2C1p_%5_%6_2L2MET75_MadSpin
# DATA 		: 0
# AF2 		: 1
# PRIORITY 	: 0

mc16_13TeV.394984.MGPy8EG_A14N23LO_SM_N2C1p_100_60_2L2MET75_MadSpin.deriv.DAOD_SUSY16.e7035_a875_r10724_p3654
mc16_13TeV.396910.MGPy8EG_A14N23LO_SM_N2C1p_101p5_100_2L2MET75_MadSpin.deriv.DAOD_SUSY16.e7025_a875_r10724_p3654
mc16_13TeV.394995.MGPy8EG_A14N23LO_SM_N2C1p_102_100_2L2MET75_MadSpin.deriv.DAOD_SUSY16.e6708_a875_r10724_p3654
mc16_13TeV.394996.MGPy8EG_A14N23LO_SM_N2C1p_103_100_2L2MET75_MadSpin.deriv.DAOD_SUSY16.e6708_a875_r10724_p3654
mc16_13TeV.394997.MGPy8EG_A14N23LO_SM_N2C1p_105_100_2L2MET75_MadSpin.deriv.DAOD_SUSY16.e6708_a875_r10724_p3654
mc16_13TeV.394998.MGPy8EG_A14N23LO_SM_N2C1p_110_100_2L2MET75_MadSpin.deriv.DAOD_SUSY16.e7035_a875_r10724_p3654
mc16_13TeV.394992.MGPy8EG_A14N23LO_SM_N2C1p_110_80_2L2MET75_MadSpin.deriv.DAOD_SUSY16.e6708_a875_r10724_p3654
mc16_13TeV.394999.MGPy8EG_A14N23LO_SM_N2C1p_115_100_2L2MET75_MadSpin.deriv.DAOD_SUSY16.e7035_a875_r10724_p3654
mc16_13TeV.395000.MGPy8EG_A14N23LO_SM_N2C1p_120_100_2L2MET75_MadSpin.deriv.DAOD_SUSY16.e7035_a875_r10724_p3654
mc16_13TeV.394985.MGPy8EG_A14N23LO_SM_N2C1p_120_60_2L2MET75_MadSpin.deriv.DAOD_SUSY16.e6980_a875_r10724_p3654
mc16_13TeV.394993.MGPy8EG_A14N23LO_SM_N2C1p_120_80_2L2MET75_MadSpin.deriv.DAOD_SUSY16.e7035_a875_r10724_p3654
mc16_13TeV.396918.MGPy8EG_A14N23LO_SM_N2C1p_126p5_125_2L2MET75_MadSpin.deriv.DAOD_SUSY16.e7025_a875_r10724_p3654
mc16_13TeV.395004.MGPy8EG_A14N23LO_SM_N2C1p_127_125_2L2MET75_MadSpin.deriv.DAOD_SUSY16.e6708_a875_r10724_p3654
mc16_13TeV.395014.MGPy8EG_A14N23LO_SM_N2C1p_153_150_2L2MET75_MadSpin.deriv.DAOD_SUSY16.e7035_a875_r10724_p3654
mc16_13TeV.395015.MGPy8EG_A14N23LO_SM_N2C1p_155_150_2L2MET75_MadSpin.deriv.DAOD_SUSY16.e6708_a875_r10724_p3654
mc16_13TeV.395016.MGPy8EG_A14N23LO_SM_N2C1p_160_150_2L2MET75_MadSpin.deriv.DAOD_SUSY16.e6708_a875_r10724_p3654
mc16_13TeV.395017.MGPy8EG_A14N23LO_SM_N2C1p_165_150_2L2MET75_MadSpin.deriv.DAOD_SUSY16.e6708_a875_r10724_p3654
mc16_13TeV.395018.MGPy8EG_A14N23LO_SM_N2C1p_170_150_2L2MET75_MadSpin.deriv.DAOD_SUSY16.e7035_a875_r10724_p3654
mc16_13TeV.395019.MGPy8EG_A14N23LO_SM_N2C1p_180_150_2L2MET75_MadSpin.deriv.DAOD_SUSY16.e7035_a875_r10724_p3654
mc16_13TeV.395020.MGPy8EG_A14N23LO_SM_N2C1p_190_150_2L2MET75_MadSpin.deriv.DAOD_SUSY16.e7035_a875_r10724_p3654
mc16_13TeV.395024.MGPy8EG_A14N23LO_SM_N2C1p_205_200_2L2MET75_MadSpin.deriv.DAOD_SUSY16.e7035_a875_r10724_p3654
#mc16_13TeV.395021.MGPy8EG_A14N23LO_SM_N2C1p_210_150_2L2MET75_MadSpin.deriv.DAOD_SUSY16.e6708_a875_r10724_p3654
mc16_13TeV.395025.MGPy8EG_A14N23LO_SM_N2C1p_210_200_2L2MET75_MadSpin.deriv.DAOD_SUSY16.e7035_a875_r10724_p3654
mc16_13TeV.395026.MGPy8EG_A14N23LO_SM_N2C1p_215_200_2L2MET75_MadSpin.deriv.DAOD_SUSY16.e7035_a875_r10724_p3654
mc16_13TeV.395027.MGPy8EG_A14N23LO_SM_N2C1p_220_200_2L2MET75_MadSpin.deriv.DAOD_SUSY16.e7035_a875_r10724_p3654
mc16_13TeV.395034.MGPy8EG_A14N23LO_SM_N2C1p_260_250_2L2MET75_MadSpin.deriv.DAOD_SUSY16.e6708_a875_r10724_p3654
mc16_13TeV.395035.MGPy8EG_A14N23LO_SM_N2C1p_265_250_2L2MET75_MadSpin.deriv.DAOD_SUSY16.e7035_a875_r10724_p3654
mc16_13TeV.396914.MGPy8EG_A14N23LO_SM_N2C1p_81p5_80_2L2MET75_MadSpin.deriv.DAOD_SUSY16.e7025_a875_r10724_p3654
mc16_13TeV.394986.MGPy8EG_A14N23LO_SM_N2C1p_82_80_2L2MET75_MadSpin.deriv.DAOD_SUSY16.e6708_a875_r10724_p3654
mc16_13TeV.394987.MGPy8EG_A14N23LO_SM_N2C1p_83_80_2L2MET75_MadSpin.deriv.DAOD_SUSY16.e6708_a875_r10724_p3654
mc16_13TeV.394988.MGPy8EG_A14N23LO_SM_N2C1p_85_80_2L2MET75_MadSpin.deriv.DAOD_SUSY16.e7035_a875_r10724_p3654
mc16_13TeV.394989.MGPy8EG_A14N23LO_SM_N2C1p_90_80_2L2MET75_MadSpin.deriv.DAOD_SUSY16.e7035_a875_r10724_p3654
mc16_13TeV.394990.MGPy8EG_A14N23LO_SM_N2C1p_95_80_2L2MET75_MadSpin.deriv.DAOD_SUSY16.e6708_a875_r10724_p3654

