
# NAME 		: alt_ttbar_PowPy8_nonallhad_hdamp258p75
# DATA 		: 0
# AF2 		: 0
# PRIORITY 	: 0

mc16_13TeV.410470.PhPy8EG_A14_ttbar_hdamp258p75_nonallhad.deriv.DAOD_SUSY16.e6337_e5984_s3126_r10201_r10210_p3387
