
# NAME     : VBFwinobino_120_100_2L2MET75
# DATA     : 0
# AF2      : 1
# PRIORITY : 0

mc16_13TeV:mc16_13TeV.398105.MGPy8EG_A14N23LO_SM_N2C1pWBVBFQED_120_100_2L2MET75_MadSpin.deriv.DAOD_SUSY16.e7550_e5984_a875_r10724_r10726_p3652
mc16_13TeV:mc16_13TeV.398135.MGPy8EG_A14N23LO_SM_N2C1mWBVBFQED_120_100_2L2MET75_MadSpin.deriv.DAOD_SUSY16.e7550_e5984_a875_r10724_r10726_p3652
mc16_13TeV:mc16_13TeV.398165.MGPy8EG_A14N23LO_SM_C1C1WBVBFQED_120_100_2L2MET75_MadSpin.deriv.DAOD_SUSY16.e7550_e5984_a875_r10724_r10726_p3652
