
# NAME     : VBFhiggsino_120_110_2L2MET75
# DATA     : 0
# AF2      : 1
# PRIORITY : 0

mc16_13TeV:mc16_13TeV.397984.MGPy8EG_A14N23LO_SM_N2N1HHVBFQED_120_110_2L2MET75_MadSpin.deriv.DAOD_SUSY16.e7550_e5984_a875_r10724_r10726_p3652
mc16_13TeV:mc16_13TeV.398014.MGPy8EG_A14N23LO_SM_N2C1pHHVBFQED_120_110_2L2MET75_MadSpin.deriv.DAOD_SUSY16.e7550_e5984_a875_r10724_r10726_p3652
mc16_13TeV:mc16_13TeV.398044.MGPy8EG_A14N23LO_SM_N2C1mHHVBFQED_120_110_2L2MET75_MadSpin.deriv.DAOD_SUSY16.e7550_e5984_a875_r10724_r10726_p3652
mc16_13TeV:mc16_13TeV.398074.MGPy8EG_A14N23LO_SM_C1C1HHVBFQED_120_110_2L2MET75_MadSpin.deriv.DAOD_SUSY16.e7550_e5984_a875_r10724_r10726_p3652
