# NAME          : MGPy8EG_A14N23LO_SlepSlep_direct_%5_%6
# Data          : 0
# AF2           : 1
# PRIORITY      : 0

mc16_13TeV.503054.MGPy8EG_A14N23LO_SlepSlep_direct_125p0_50p0.deriv.DAOD_PHYS.e8263_a875_r10201_p5001
mc16_13TeV.503055.MGPy8EG_A14N23LO_SlepSlep_direct_125p0_25p0.deriv.DAOD_PHYS.e8263_a875_r10201_p5001
mc16_13TeV.503056.MGPy8EG_A14N23LO_SlepSlep_direct_125p0_1p0.deriv.DAOD_PHYS.e8263_a875_r10201_p5001
mc16_13TeV.503057.MGPy8EG_A14N23LO_SlepSlep_direct_150p0_1p0.deriv.DAOD_PHYS.e8263_a875_r10201_p5001
mc16_13TeV.503058.MGPy8EG_A14N23LO_SlepSlep_direct_150p0_25p0.deriv.DAOD_PHYS.e8263_a875_r10201_p5001
mc16_13TeV.503059.MGPy8EG_A14N23LO_SlepSlep_direct_150p0_50p0.deriv.DAOD_PHYS.e8263_a875_r10201_p5001
mc16_13TeV.503060.MGPy8EG_A14N23LO_SlepSlep_direct_150p0_75p0.deriv.DAOD_PHYS.e8263_a875_r10201_p5001
mc16_13TeV.503061.MGPy8EG_A14N23LO_SlepSlep_direct_175p0_1p0.deriv.DAOD_PHYS.e8263_a875_r10201_p5001
mc16_13TeV.503062.MGPy8EG_A14N23LO_SlepSlep_direct_175p0_25p0.deriv.DAOD_PHYS.e8263_a875_r10201_p5001
mc16_13TeV.503063.MGPy8EG_A14N23LO_SlepSlep_direct_175p0_50p0.deriv.DAOD_PHYS.e8263_a875_r10201_p5001
mc16_13TeV.503064.MGPy8EG_A14N23LO_SlepSlep_direct_175p0_75p0.deriv.DAOD_PHYS.e8263_a875_r10201_p5001
mc16_13TeV.503065.MGPy8EG_A14N23LO_SlepSlep_direct_175p0_100p0.deriv.DAOD_PHYS.e8263_a875_r10201_p5001
mc16_13TeV.503066.MGPy8EG_A14N23LO_SlepSlep_direct_175p0_125p0.deriv.DAOD_PHYS.e8263_a875_r10201_p5001
mc16_13TeV.503067.MGPy8EG_A14N23LO_SlepSlep_direct_200p0_25p0.deriv.DAOD_PHYS.e8263_a875_r10201_p5001
mc16_13TeV.503068.MGPy8EG_A14N23LO_SlepSlep_direct_200p0_50p0.deriv.DAOD_PHYS.e8263_a875_r10201_p5001
mc16_13TeV.503069.MGPy8EG_A14N23LO_SlepSlep_direct_200p0_75p0.deriv.DAOD_PHYS.e8263_a875_r10201_p5001
mc16_13TeV.503070.MGPy8EG_A14N23LO_SlepSlep_direct_200p0_125p0.deriv.DAOD_PHYS.e8263_a875_r10201_p5001
mc16_13TeV.503071.MGPy8EG_A14N23LO_SlepSlep_direct_225p0_1p0.deriv.DAOD_PHYS.e8263_a875_r10201_p5001
mc16_13TeV.503072.MGPy8EG_A14N23LO_SlepSlep_direct_225p0_25p0.deriv.DAOD_PHYS.e8263_a875_r10201_p5001
mc16_13TeV.503073.MGPy8EG_A14N23LO_SlepSlep_direct_225p0_50p0.deriv.DAOD_PHYS.e8263_a875_r10201_p5001
mc16_13TeV.503074.MGPy8EG_A14N23LO_SlepSlep_direct_225p0_75p0.deriv.DAOD_PHYS.e8263_a875_r10201_p5001
mc16_13TeV.503075.MGPy8EG_A14N23LO_SlepSlep_direct_225p0_100p0.deriv.DAOD_PHYS.e8263_a875_r10201_p5001
mc16_13TeV.503076.MGPy8EG_A14N23LO_SlepSlep_direct_225p0_125p0.deriv.DAOD_PHYS.e8263_a875_r10201_p5001
mc16_13TeV.503077.MGPy8EG_A14N23LO_SlepSlep_direct_225p0_150p0.deriv.DAOD_PHYS.e8263_a875_r10201_p5001
mc16_13TeV.503078.MGPy8EG_A14N23LO_SlepSlep_direct_250p0_175p0.deriv.DAOD_PHYS.e8263_a875_r10201_p5001
mc16_13TeV.503079.MGPy8EG_A14N23LO_SlepSlep_direct_250p0_125p0.deriv.DAOD_PHYS.e8263_a875_r10201_p5001
mc16_13TeV.503080.MGPy8EG_A14N23LO_SlepSlep_direct_250p0_75p0.deriv.DAOD_PHYS.e8263_a875_r10201_p5001
mc16_13TeV.503081.MGPy8EG_A14N23LO_SlepSlep_direct_250p0_50p0.deriv.DAOD_PHYS.e8263_a875_r10201_p5001
mc16_13TeV.503082.MGPy8EG_A14N23LO_SlepSlep_direct_250p0_25p0.deriv.DAOD_PHYS.e8263_a875_r10201_p5001
mc16_13TeV.503083.MGPy8EG_A14N23LO_SlepSlep_direct_300p0_50p0.deriv.DAOD_PHYS.e8263_a875_r10201_p5001
mc16_13TeV.503084.MGPy8EG_A14N23LO_SlepSlep_direct_90p0_30p0.deriv.DAOD_PHYS.e8263_a875_r10201_p5001
mc16_13TeV.503085.MGPy8EG_A14N23LO_SlepSlep_direct_90p0_1p0.deriv.DAOD_PHYS.e8263_a875_r10201_p5001
mc16_13TeV.503086.MGPy8EG_A14N23LO_SlepSlep_direct_100p0_80p0.deriv.DAOD_PHYS.e8263_a875_r10201_p5001
mc16_13TeV.503087.MGPy8EG_A14N23LO_SlepSlep_direct_100p0_70p0.deriv.DAOD_PHYS.e8263_a875_r10201_p5001
mc16_13TeV.503088.MGPy8EG_A14N23LO_SlepSlep_direct_100p0_60p0.deriv.DAOD_PHYS.e8263_a875_r10201_p5001
mc16_13TeV.503089.MGPy8EG_A14N23LO_SlepSlep_direct_100p0_50p0.deriv.DAOD_PHYS.e8263_a875_r10201_p5001
mc16_13TeV.503090.MGPy8EG_A14N23LO_SlepSlep_direct_100p0_40p0.deriv.DAOD_PHYS.e8263_a875_r10201_p5001
mc16_13TeV.503091.MGPy8EG_A14N23LO_SlepSlep_direct_100p0_25p0.deriv.DAOD_PHYS.e8263_a875_r10201_p5001
mc16_13TeV.503092.MGPy8EG_A14N23LO_SlepSlep_direct_100p0_1p0.deriv.DAOD_PHYS.e8263_a875_r10201_p5001
mc16_13TeV.503093.MGPy8EG_A14N23LO_SlepSlep_direct_125p0_105p0.deriv.DAOD_PHYS.e8263_a875_r10201_p5001
mc16_13TeV.503094.MGPy8EG_A14N23LO_SlepSlep_direct_125p0_95p0.deriv.DAOD_PHYS.e8263_a875_r10201_p5001
mc16_13TeV.503095.MGPy8EG_A14N23LO_SlepSlep_direct_125p0_85p0.deriv.DAOD_PHYS.e8263_a875_r10201_p5001
mc16_13TeV.503096.MGPy8EG_A14N23LO_SlepSlep_direct_125p0_75p0.deriv.DAOD_PHYS.e8263_a875_r10201_p5001
mc16_13TeV.503097.MGPy8EG_A14N23LO_SlepSlep_direct_150p0_130p0.deriv.DAOD_PHYS.e8263_a875_r10201_p5001
mc16_13TeV.503098.MGPy8EG_A14N23LO_SlepSlep_direct_150p0_120p0.deriv.DAOD_PHYS.e8263_a875_r10201_p5001
mc16_13TeV.503099.MGPy8EG_A14N23LO_SlepSlep_direct_150p0_110p0.deriv.DAOD_PHYS.e8263_a875_r10201_p5001
mc16_13TeV.503100.MGPy8EG_A14N23LO_SlepSlep_direct_150p0_100p0.deriv.DAOD_PHYS.e8263_a875_r10201_p5001
mc16_13TeV.503101.MGPy8EG_A14N23LO_SlepSlep_direct_150p0_90p0.deriv.DAOD_PHYS.e8263_a875_r10201_p5001
mc16_13TeV.503102.MGPy8EG_A14N23LO_SlepSlep_direct_175p0_155p0.deriv.DAOD_PHYS.e8263_a875_r10201_p5001
mc16_13TeV.503103.MGPy8EG_A14N23LO_SlepSlep_direct_175p0_145p0.deriv.DAOD_PHYS.e8263_a875_r10201_p5001
mc16_13TeV.503104.MGPy8EG_A14N23LO_SlepSlep_direct_175p0_135p0.deriv.DAOD_PHYS.e8263_a875_r10201_p5001
mc16_13TeV.503105.MGPy8EG_A14N23LO_SlepSlep_direct_200p0_180p0.deriv.DAOD_PHYS.e8263_a875_r10201_p5001
mc16_13TeV.503106.MGPy8EG_A14N23LO_SlepSlep_direct_200p0_170p0.deriv.DAOD_PHYS.e8263_a875_r10201_p5001
mc16_13TeV.503107.MGPy8EG_A14N23LO_SlepSlep_direct_200p0_160p0.deriv.DAOD_PHYS.e8263_a875_r10201_p5001
mc16_13TeV.503108.MGPy8EG_A14N23LO_SlepSlep_direct_200p0_150p0.deriv.DAOD_PHYS.e8263_a875_r10201_p5001
mc16_13TeV.503109.MGPy8EG_A14N23LO_SlepSlep_direct_200p0_140p0.deriv.DAOD_PHYS.e8263_a875_r10201_p5001
mc16_13TeV.503110.MGPy8EG_A14N23LO_SlepSlep_direct_200p0_100p0.deriv.DAOD_PHYS.e8263_a875_r10201_p5001
mc16_13TeV.503111.MGPy8EG_A14N23LO_SlepSlep_direct_200p0_1p0.deriv.DAOD_PHYS.e8263_a875_r10201_p5001
mc16_13TeV.503112.MGPy8EG_A14N23LO_SlepSlep_direct_225p0_205p0.deriv.DAOD_PHYS.e8263_a875_r10201_p5001
mc16_13TeV.503113.MGPy8EG_A14N23LO_SlepSlep_direct_225p0_195p0.deriv.DAOD_PHYS.e8263_a875_r10201_p5001
mc16_13TeV.503114.MGPy8EG_A14N23LO_SlepSlep_direct_225p0_185p0.deriv.DAOD_PHYS.e8263_a875_r10201_p5001
mc16_13TeV.503115.MGPy8EG_A14N23LO_SlepSlep_direct_250p0_230p0.deriv.DAOD_PHYS.e8263_a875_r10201_p5001
mc16_13TeV.503116.MGPy8EG_A14N23LO_SlepSlep_direct_250p0_220p0.deriv.DAOD_PHYS.e8263_a875_r10201_p5001
mc16_13TeV.503117.MGPy8EG_A14N23LO_SlepSlep_direct_250p0_210p0.deriv.DAOD_PHYS.e8263_a875_r10201_p5001
mc16_13TeV.503118.MGPy8EG_A14N23LO_SlepSlep_direct_250p0_200p0.deriv.DAOD_PHYS.e8263_a875_r10201_p5001
mc16_13TeV.503119.MGPy8EG_A14N23LO_SlepSlep_direct_250p0_150p0.deriv.DAOD_PHYS.e8263_a875_r10201_p5001
mc16_13TeV.503120.MGPy8EG_A14N23LO_SlepSlep_direct_250p0_100p0.deriv.DAOD_PHYS.e8263_a875_r10201_p5001
mc16_13TeV.503121.MGPy8EG_A14N23LO_SlepSlep_direct_250p0_1p0.deriv.DAOD_PHYS.e8263_a875_r10201_p5001
mc16_13TeV.503122.MGPy8EG_A14N23LO_SlepSlep_direct_275p0_255p0.deriv.DAOD_PHYS.e8263_a875_r10201_p5001
mc16_13TeV.503123.MGPy8EG_A14N23LO_SlepSlep_direct_275p0_245p0.deriv.DAOD_PHYS.e8263_a875_r10201_p5001
mc16_13TeV.503124.MGPy8EG_A14N23LO_SlepSlep_direct_275p0_235p0.deriv.DAOD_PHYS.e8263_a875_r10201_p5001
mc16_13TeV.503125.MGPy8EG_A14N23LO_SlepSlep_direct_275p0_200p0.deriv.DAOD_PHYS.e8263_a875_r10201_p5001
mc16_13TeV.503126.MGPy8EG_A14N23LO_SlepSlep_direct_275p0_150p0.deriv.DAOD_PHYS.e8263_a875_r10201_p5001
mc16_13TeV.503127.MGPy8EG_A14N23LO_SlepSlep_direct_275p0_100p0.deriv.DAOD_PHYS.e8263_a875_r10201_p5001
mc16_13TeV.503128.MGPy8EG_A14N23LO_SlepSlep_direct_275p0_50p0.deriv.DAOD_PHYS.e8263_a875_r10201_p5001
mc16_13TeV.503129.MGPy8EG_A14N23LO_SlepSlep_direct_275p0_1p0.deriv.DAOD_PHYS.e8263_a875_r10201_p5001
mc16_13TeV.503130.MGPy8EG_A14N23LO_SlepSlep_direct_300p0_280p0.deriv.DAOD_PHYS.e8263_a875_r10201_p5001
mc16_13TeV.503131.MGPy8EG_A14N23LO_SlepSlep_direct_300p0_270p0.deriv.DAOD_PHYS.e8263_a875_r10201_p5001
mc16_13TeV.503132.MGPy8EG_A14N23LO_SlepSlep_direct_300p0_260p0.deriv.DAOD_PHYS.e8263_a875_r10201_p5001
mc16_13TeV.503133.MGPy8EG_A14N23LO_SlepSlep_direct_300p0_250p0.deriv.DAOD_PHYS.e8263_a875_r10201_p5001
mc16_13TeV.503134.MGPy8EG_A14N23LO_SlepSlep_direct_300p0_200p0.deriv.DAOD_PHYS.e8263_a875_r10201_p5001
mc16_13TeV.503135.MGPy8EG_A14N23LO_SlepSlep_direct_300p0_150p0.deriv.DAOD_PHYS.e8263_a875_r10201_p5001
mc16_13TeV.503136.MGPy8EG_A14N23LO_SlepSlep_direct_300p0_100p0.deriv.DAOD_PHYS.e8263_a875_r10201_p5001
mc16_13TeV.503137.MGPy8EG_A14N23LO_SlepSlep_direct_300p0_1p0.deriv.DAOD_PHYS.e8263_a875_r10201_p5001
mc16_13TeV.503138.MGPy8EG_A14N23LO_SlepSlep_direct_350p0_330p0.deriv.DAOD_PHYS.e8263_a875_r10201_p5001
mc16_13TeV.503139.MGPy8EG_A14N23LO_SlepSlep_direct_350p0_300p0.deriv.DAOD_PHYS.e8263_a875_r10201_p5001
mc16_13TeV.503140.MGPy8EG_A14N23LO_SlepSlep_direct_350p0_250p0.deriv.DAOD_PHYS.e8263_a875_r10201_p5001
mc16_13TeV.503141.MGPy8EG_A14N23LO_SlepSlep_direct_350p0_200p0.deriv.DAOD_PHYS.e8263_a875_r10201_p5001
mc16_13TeV.503142.MGPy8EG_A14N23LO_SlepSlep_direct_350p0_150p0.deriv.DAOD_PHYS.e8263_a875_r10201_p5001
mc16_13TeV.503143.MGPy8EG_A14N23LO_SlepSlep_direct_350p0_100p0.deriv.DAOD_PHYS.e8263_a875_r10201_p5001
mc16_13TeV.503144.MGPy8EG_A14N23LO_SlepSlep_direct_350p0_1p0.deriv.DAOD_PHYS.e8263_a875_r10201_p5001
mc16_13TeV.503145.MGPy8EG_A14N23LO_SlepSlep_direct_400p0_380p0.deriv.DAOD_PHYS.e8263_a875_r10201_p5001
mc16_13TeV.503146.MGPy8EG_A14N23LO_SlepSlep_direct_400p0_350p0.deriv.DAOD_PHYS.e8263_a875_r10201_p5001
mc16_13TeV.503147.MGPy8EG_A14N23LO_SlepSlep_direct_400p0_300p0.deriv.DAOD_PHYS.e8263_a875_r10201_p5001
mc16_13TeV.503148.MGPy8EG_A14N23LO_SlepSlep_direct_400p0_250p0.deriv.DAOD_PHYS.e8263_a875_r10201_p5001
mc16_13TeV.503149.MGPy8EG_A14N23LO_SlepSlep_direct_400p0_200p0.deriv.DAOD_PHYS.e8263_a875_r10201_p5001
mc16_13TeV.503150.MGPy8EG_A14N23LO_SlepSlep_direct_400p0_100p0.deriv.DAOD_PHYS.e8263_a875_r10201_p5001
