
# NAME     : VBFwinobino_60_58_2L2MET75
# DATA     : 0
# AF2      : 1
# PRIORITY : 0

mc16_13TeV:mc16_13TeV.398089.MGPy8EG_A14N23LO_SM_N2C1pWBVBFQED_60_58_2L2MET75_MadSpin.deriv.DAOD_SUSY16.e7550_e5984_a875_r10201_r10210_p3652
mc16_13TeV:mc16_13TeV.398119.MGPy8EG_A14N23LO_SM_N2C1mWBVBFQED_60_58_2L2MET75_MadSpin.deriv.DAOD_SUSY16.e7550_e5984_a875_r10201_r10210_p3652
mc16_13TeV:mc16_13TeV.398149.MGPy8EG_A14N23LO_SM_C1C1WBVBFQED_60_58_2L2MET75_MadSpin.deriv.DAOD_SUSY16.e7550_e5984_a875_r10201_r10210_p3652
