
# NAME     : VBFhiggsino_60_20_2L2MET75
# DATA     : 0
# AF2      : 1
# PRIORITY : 0

mc16_13TeV:mc16_13TeV.397974.MGPy8EG_A14N23LO_SM_N2N1HHVBFQED_60_20_2L2MET75_MadSpin.deriv.DAOD_SUSY16.e7550_e5984_a875_r10201_r10210_p3652
mc16_13TeV:mc16_13TeV.398004.MGPy8EG_A14N23LO_SM_N2C1pHHVBFQED_60_20_2L2MET75_MadSpin.deriv.DAOD_SUSY16.e7550_e5984_a875_r10201_r10210_p3652
mc16_13TeV:mc16_13TeV.398034.MGPy8EG_A14N23LO_SM_N2C1mHHVBFQED_60_20_2L2MET75_MadSpin.deriv.DAOD_SUSY16.e7550_e5984_a875_r10201_r10210_p3652
mc16_13TeV:mc16_13TeV.398064.MGPy8EG_A14N23LO_SM_C1C1HHVBFQED_60_20_2L2MET75_MadSpin.deriv.DAOD_SUSY16.e7550_e5984_a875_r10201_r10210_p3652
