
# NAME     : VBFhiggsino_100_90_2L2MET75
# DATA     : 0
# AF2      : 1
# PRIORITY : 0

mc16_13TeV:mc16_13TeV.397990.MGPy8EG_A14N23LO_SM_N2N1HHVBFQED_100_90_2L2MET75_MadSpin.deriv.DAOD_SUSY16.e7550_e5984_a875_r10201_r10210_p3652
mc16_13TeV:mc16_13TeV.398020.MGPy8EG_A14N23LO_SM_N2C1pHHVBFQED_100_90_2L2MET75_MadSpin.deriv.DAOD_SUSY16.e7550_e5984_a875_r10201_r10210_p3652
mc16_13TeV:mc16_13TeV.398050.MGPy8EG_A14N23LO_SM_N2C1mHHVBFQED_100_90_2L2MET75_MadSpin.deriv.DAOD_SUSY16.e7550_e5984_a875_r10201_r10210_p3652
mc16_13TeV:mc16_13TeV.398080.MGPy8EG_A14N23LO_SM_C1C1HHVBFQED_100_90_2L2MET75_MadSpin.deriv.DAOD_SUSY16.e7550_e5984_a875_r10201_r10210_p3652
