# NAME     : dataF
# DATA     : 1
# AF2      : 0
# PRIORITY : 0

data17_13TeV:data17_13TeV.periodE.physics_Main.PhysCont.DAOD_SUSY16.grp17_v01_p3653
data17_13TeV:data17_13TeV.periodF.physics_Main.PhysCont.DAOD_SUSY16.grp17_v01_p3653
data17_13TeV:data17_13TeV.periodH.physics_Main.PhysCont.DAOD_SUSY16.grp17_v01_p3653
