# NAME     : dataC
# DATA     : 1
# AF2      : 0
# PRIORITY : 0

data16_13TeV:data16_13TeV.periodE.physics_Main.PhysCont.DAOD_SUSY16.grp16_v01_p3653
data16_13TeV:data16_13TeV.periodF.physics_Main.PhysCont.DAOD_SUSY16.grp16_v01_p3653
data16_13TeV:data16_13TeV.periodG.physics_Main.PhysCont.DAOD_SUSY16.grp16_v01_p3653
data16_13TeV:data16_13TeV.periodI.physics_Main.PhysCont.DAOD_SUSY16.grp16_v01_p3653
