# NAME          : MGPy8EG_HH_%3_%4_1LMET50
# Data          : 0
# AF2           : 1
# PRIORITY      : 0

mc16_13TeV.509207.MGPy8EG_C1mN2_86_85_1LMET50_MadSpin_noG.deriv.DAOD_SUSY20.e8352_a875_r10201_p5243
mc16_13TeV.509208.MGPy8EG_C1mN2_86p5_85_1LMET50_MadSpin_noG.deriv.DAOD_SUSY20.e8352_a875_r10201_p5243
mc16_13TeV.509209.MGPy8EG_C1mN2_87_85_1LMET50_MadSpin_noG.deriv.DAOD_SUSY20.e8352_a875_r10201_p5243
mc16_13TeV.509210.MGPy8EG_C1mN2_88_85_1LMET50_MadSpin_noG.deriv.DAOD_SUSY20.e8352_a875_r10201_p5243
mc16_13TeV.509211.MGPy8EG_C1mN2_89_85_1LMET50_MadSpin_noG.deriv.DAOD_SUSY20.e8352_a875_r10201_p5243
mc16_13TeV.509212.MGPy8EG_C1mN2_90_85_1LMET50_MadSpin_noG.deriv.DAOD_SUSY20.e8352_a875_r10201_p5243
mc16_13TeV.509213.MGPy8EG_C1mN2_101_100_1LMET50_MadSpin_noG.deriv.DAOD_SUSY20.e8352_a875_r10201_p5243
mc16_13TeV.509214.MGPy8EG_C1mN2_101p5_100_1LMET50_MadSpin_noG.deriv.DAOD_SUSY20.e8352_a875_r10201_p5243
mc16_13TeV.509215.MGPy8EG_C1mN2_102_100_1LMET50_MadSpin_noG.deriv.DAOD_SUSY20.e8352_a875_r10201_p5243
mc16_13TeV.509216.MGPy8EG_C1mN2_103_100_1LMET50_MadSpin_noG.deriv.DAOD_SUSY20.e8352_a875_r10201_p5243
mc16_13TeV.509217.MGPy8EG_C1mN2_104_100_1LMET50_MadSpin_noG.deriv.DAOD_SUSY20.e8352_a875_r10201_p5243
mc16_13TeV.509218.MGPy8EG_C1mN2_105_100_1LMET50_MadSpin_noG.deriv.DAOD_SUSY20.e8352_a875_r10201_p5243
mc16_13TeV.509219.MGPy8EG_C1mN2_126_125_1LMET50_MadSpin_noG.deriv.DAOD_SUSY20.e8352_a875_r10201_p5243
mc16_13TeV.509220.MGPy8EG_C1mN2_126p5_125_1LMET50_MadSpin_noG.deriv.DAOD_SUSY20.e8352_a875_r10201_p5243
mc16_13TeV.509221.MGPy8EG_C1mN2_127_125_1LMET50_MadSpin_noG.deriv.DAOD_SUSY20.e8352_a875_r10201_p5243
mc16_13TeV.509222.MGPy8EG_C1mN2_128_125_1LMET50_MadSpin_noG.deriv.DAOD_SUSY20.e8352_a875_r10201_p5243
mc16_13TeV.509223.MGPy8EG_C1mN2_129_125_1LMET50_MadSpin_noG.deriv.DAOD_SUSY20.e8352_a875_r10201_p5243
mc16_13TeV.509224.MGPy8EG_C1mN2_130_125_1LMET50_MadSpin_noG.deriv.DAOD_SUSY20.e8352_a875_r10201_p5243
mc16_13TeV.509225.MGPy8EG_C1mN2_151p5_150_1LMET50_MadSpin_noG.deriv.DAOD_SUSY20.e8352_a875_r10201_p5243
mc16_13TeV.509226.MGPy8EG_C1mN2_152_150_1LMET50_MadSpin_noG.deriv.DAOD_SUSY20.e8352_a875_r10201_p5243
mc16_13TeV.509227.MGPy8EG_C1mN2_153_150_1LMET50_MadSpin_noG.deriv.DAOD_SUSY20.e8352_a875_r10201_p5243
mc16_13TeV.509228.MGPy8EG_C1mN2_154_150_1LMET50_MadSpin_noG.deriv.DAOD_SUSY20.e8352_a875_r10201_p5243
mc16_13TeV.509229.MGPy8EG_C1mN2_155_150_1LMET50_MadSpin_noG.deriv.DAOD_SUSY20.e8352_a875_r10201_p5243
mc16_13TeV.509230.MGPy8EG_C1mN2_176p5_175_1LMET50_MadSpin_noG.deriv.DAOD_SUSY20.e8352_a875_r10201_p5243
mc16_13TeV.509231.MGPy8EG_C1mN2_177_175_1LMET50_MadSpin_noG.deriv.DAOD_SUSY20.e8352_a875_r10201_p5243
mc16_13TeV.509232.MGPy8EG_C1mN2_178_175_1LMET50_MadSpin_noG.deriv.DAOD_SUSY20.e8352_a875_r10201_p5243
mc16_13TeV.509233.MGPy8EG_C1mN2_179_175_1LMET50_MadSpin_noG.deriv.DAOD_SUSY20.e8352_a875_r10201_p5243
mc16_13TeV.509234.MGPy8EG_C1mN2_180_175_1LMET50_MadSpin_noG.deriv.DAOD_SUSY20.e8352_a875_r10201_p5243
mc16_13TeV.509235.MGPy8EG_C1pN2_86_85_1LMET50_MadSpin_noG.deriv.DAOD_SUSY20.e8352_a875_r10201_p5243
mc16_13TeV.509236.MGPy8EG_C1pN2_86p5_85_1LMET50_MadSpin_noG.deriv.DAOD_SUSY20.e8352_a875_r10201_p5243
mc16_13TeV.509237.MGPy8EG_C1pN2_87_85_1LMET50_MadSpin_noG.deriv.DAOD_SUSY20.e8352_a875_r10201_p5243
mc16_13TeV.509238.MGPy8EG_C1pN2_88_85_1LMET50_MadSpin_noG.deriv.DAOD_SUSY20.e8352_a875_r10201_p5243
mc16_13TeV.509239.MGPy8EG_C1pN2_89_85_1LMET50_MadSpin_noG.deriv.DAOD_SUSY20.e8352_a875_r10201_p5243
mc16_13TeV.509240.MGPy8EG_C1pN2_90_85_1LMET50_MadSpin_noG.deriv.DAOD_SUSY20.e8352_a875_r10201_p5243
mc16_13TeV.509241.MGPy8EG_C1pN2_101_100_1LMET50_MadSpin_noG.deriv.DAOD_SUSY20.e8352_a875_r10201_p5243
mc16_13TeV.509242.MGPy8EG_C1pN2_101p5_100_1LMET50_MadSpin_noG.deriv.DAOD_SUSY20.e8352_a875_r10201_p5243
mc16_13TeV.509243.MGPy8EG_C1pN2_102_100_1LMET50_MadSpin_noG.deriv.DAOD_SUSY20.e8352_a875_r10201_p5243
mc16_13TeV.509244.MGPy8EG_C1pN2_103_100_1LMET50_MadSpin_noG.deriv.DAOD_SUSY20.e8352_a875_r10201_p5243
mc16_13TeV.509245.MGPy8EG_C1pN2_104_100_1LMET50_MadSpin_noG.deriv.DAOD_SUSY20.e8352_a875_r10201_p5243
mc16_13TeV.509246.MGPy8EG_C1pN2_105_100_1LMET50_MadSpin_noG.deriv.DAOD_SUSY20.e8352_a875_r10201_p5243
mc16_13TeV.509247.MGPy8EG_C1pN2_126_125_1LMET50_MadSpin_noG.deriv.DAOD_SUSY20.e8352_a875_r10201_p5243
mc16_13TeV.509248.MGPy8EG_C1pN2_126p5_125_1LMET50_MadSpin_noG.deriv.DAOD_SUSY20.e8352_a875_r10201_p5243
mc16_13TeV.509249.MGPy8EG_C1pN2_127_125_1LMET50_MadSpin_noG.deriv.DAOD_SUSY20.e8352_a875_r10201_p5243
mc16_13TeV.509250.MGPy8EG_C1pN2_128_125_1LMET50_MadSpin_noG.deriv.DAOD_SUSY20.e8352_a875_r10201_p5243
mc16_13TeV.509251.MGPy8EG_C1pN2_129_125_1LMET50_MadSpin_noG.deriv.DAOD_SUSY20.e8352_a875_r10201_p5243
mc16_13TeV.509252.MGPy8EG_C1pN2_130_125_1LMET50_MadSpin_noG.deriv.DAOD_SUSY20.e8352_a875_r10201_p5243
mc16_13TeV.509253.MGPy8EG_C1pN2_151p5_150_1LMET50_MadSpin_noG.deriv.DAOD_SUSY20.e8352_a875_r10201_p5243
mc16_13TeV.509254.MGPy8EG_C1pN2_152_150_1LMET50_MadSpin_noG.deriv.DAOD_SUSY20.e8352_a875_r10201_p5243
mc16_13TeV.509255.MGPy8EG_C1pN2_153_150_1LMET50_MadSpin_noG.deriv.DAOD_SUSY20.e8352_a875_r10201_p5243
mc16_13TeV.509256.MGPy8EG_C1pN2_154_150_1LMET50_MadSpin_noG.deriv.DAOD_SUSY20.e8352_a875_r10201_p5243
mc16_13TeV.509257.MGPy8EG_C1pN2_155_150_1LMET50_MadSpin_noG.deriv.DAOD_SUSY20.e8352_a875_r10201_p5243
mc16_13TeV.509258.MGPy8EG_C1pN2_176p5_175_1LMET50_MadSpin_noG.deriv.DAOD_SUSY20.e8352_a875_r10201_p5243
mc16_13TeV.509259.MGPy8EG_C1pN2_177_175_1LMET50_MadSpin_noG.deriv.DAOD_SUSY20.e8352_a875_r10201_p5243
mc16_13TeV.509260.MGPy8EG_C1pN2_178_175_1LMET50_MadSpin_noG.deriv.DAOD_SUSY20.e8352_a875_r10201_p5243
mc16_13TeV.509261.MGPy8EG_C1pN2_179_175_1LMET50_MadSpin_noG.deriv.DAOD_SUSY20.e8352_a875_r10201_p5243
mc16_13TeV.509262.MGPy8EG_C1pN2_180_175_1LMET50_MadSpin_noG.deriv.DAOD_SUSY20.e8352_a875_r10201_p5243
mc16_13TeV.509263.MGPy8EG_N2N1_86_85_1LMET50_MadSpin_noG.deriv.DAOD_SUSY20.e8352_a875_r10201_p5243
mc16_13TeV.509264.MGPy8EG_N2N1_86p5_85_1LMET50_MadSpin_noG.deriv.DAOD_SUSY20.e8352_a875_r10201_p5243
mc16_13TeV.509265.MGPy8EG_N2N1_87_85_1LMET50_MadSpin_noG.deriv.DAOD_SUSY20.e8352_a875_r10201_p5243
mc16_13TeV.509266.MGPy8EG_N2N1_88_85_1LMET50_MadSpin_noG.deriv.DAOD_SUSY20.e8352_a875_r10201_p5243
mc16_13TeV.509267.MGPy8EG_N2N1_89_85_1LMET50_MadSpin_noG.deriv.DAOD_SUSY20.e8352_a875_r10201_p5243
mc16_13TeV.509268.MGPy8EG_N2N1_90_85_1LMET50_MadSpin_noG.deriv.DAOD_SUSY20.e8352_a875_r10201_p5243
mc16_13TeV.509269.MGPy8EG_N2N1_101_100_1LMET50_MadSpin_noG.deriv.DAOD_SUSY20.e8352_a875_r10201_p5243
mc16_13TeV.509270.MGPy8EG_N2N1_101p5_100_1LMET50_MadSpin_noG.deriv.DAOD_SUSY20.e8352_a875_r10201_p5243
mc16_13TeV.509271.MGPy8EG_N2N1_102_100_1LMET50_MadSpin_noG.deriv.DAOD_SUSY20.e8352_a875_r10201_p5243
mc16_13TeV.509272.MGPy8EG_N2N1_103_100_1LMET50_MadSpin_noG.deriv.DAOD_SUSY20.e8352_a875_r10201_p5243
mc16_13TeV.509273.MGPy8EG_N2N1_104_100_1LMET50_MadSpin_noG.deriv.DAOD_SUSY20.e8352_a875_r10201_p5243
mc16_13TeV.509274.MGPy8EG_N2N1_105_100_1LMET50_MadSpin_noG.deriv.DAOD_SUSY20.e8352_a875_r10201_p5243
mc16_13TeV.509275.MGPy8EG_N2N1_126_125_1LMET50_MadSpin_noG.deriv.DAOD_SUSY20.e8352_a875_r10201_p5243
mc16_13TeV.509276.MGPy8EG_N2N1_126p5_125_1LMET50_MadSpin_noG.deriv.DAOD_SUSY20.e8352_a875_r10201_p5243
mc16_13TeV.509277.MGPy8EG_N2N1_127_125_1LMET50_MadSpin_noG.deriv.DAOD_SUSY20.e8352_a875_r10201_p5243
mc16_13TeV.509278.MGPy8EG_N2N1_128_125_1LMET50_MadSpin_noG.deriv.DAOD_SUSY20.e8352_a875_r10201_p5243
mc16_13TeV.509279.MGPy8EG_N2N1_129_125_1LMET50_MadSpin_noG.deriv.DAOD_SUSY20.e8352_a875_r10201_p5243
mc16_13TeV.509280.MGPy8EG_N2N1_130_125_1LMET50_MadSpin_noG.deriv.DAOD_SUSY20.e8352_a875_r10201_p5243
mc16_13TeV.509281.MGPy8EG_N2N1_151p5_150_1LMET50_MadSpin_noG.deriv.DAOD_SUSY20.e8352_a875_r10201_p5243
mc16_13TeV.509282.MGPy8EG_N2N1_152_150_1LMET50_MadSpin_noG.deriv.DAOD_SUSY20.e8352_a875_r10201_p5243
mc16_13TeV.509283.MGPy8EG_N2N1_153_150_1LMET50_MadSpin_noG.deriv.DAOD_SUSY20.e8352_a875_r10201_p5243
mc16_13TeV.509284.MGPy8EG_N2N1_154_150_1LMET50_MadSpin_noG.deriv.DAOD_SUSY20.e8352_a875_r10201_p5243
mc16_13TeV.509285.MGPy8EG_N2N1_155_150_1LMET50_MadSpin_noG.deriv.DAOD_SUSY20.e8352_a875_r10201_p5243
mc16_13TeV.509286.MGPy8EG_N2N1_176p5_175_1LMET50_MadSpin_noG.deriv.DAOD_SUSY20.e8352_a875_r10201_p5243
mc16_13TeV.509287.MGPy8EG_N2N1_177_175_1LMET50_MadSpin_noG.deriv.DAOD_SUSY20.e8352_a875_r10201_p5243
mc16_13TeV.509288.MGPy8EG_N2N1_178_175_1LMET50_MadSpin_noG.deriv.DAOD_SUSY20.e8352_a875_r10201_p5243
mc16_13TeV.509289.MGPy8EG_N2N1_179_175_1LMET50_MadSpin_noG.deriv.DAOD_SUSY20.e8352_a875_r10201_p5243
mc16_13TeV.509290.MGPy8EG_N2N1_180_175_1LMET50_MadSpin_noG.deriv.DAOD_SUSY20.e8352_a875_r10201_p5243
