# NAME          : Wjets
# DATA          : 0
# AF2           : 0
# PRIORITY      : 0

mc16_13TeV.700338.Sh_2211_Wenu_maxHTpTV2_BFilter.deriv.DAOD_SUSY20.e8351_s3126_r10201_p5241
mc16_13TeV.700339.Sh_2211_Wenu_maxHTpTV2_CFilterBVeto.deriv.DAOD_SUSY20.e8351_s3126_r10201_p5241
mc16_13TeV.700340.Sh_2211_Wenu_maxHTpTV2_CVetoBVeto.deriv.DAOD_SUSY20.e8351_s3126_r10201_p5241
mc16_13TeV.700341.Sh_2211_Wmunu_maxHTpTV2_BFilter.deriv.DAOD_SUSY20.e8351_s3126_r10201_p5241
mc16_13TeV.700342.Sh_2211_Wmunu_maxHTpTV2_CFilterBVeto.deriv.DAOD_SUSY20.e8351_s3126_r10201_p5241
mc16_13TeV.700343.Sh_2211_Wmunu_maxHTpTV2_CVetoBVeto.deriv.DAOD_SUSY20.e8351_s3126_r10201_p5241
mc16_13TeV.700344.Sh_2211_Wtaunu_L_maxHTpTV2_BFilter.deriv.DAOD_SUSY20.e8351_s3126_r10201_p5241
mc16_13TeV.700345.Sh_2211_Wtaunu_L_maxHTpTV2_CFilterBVeto.deriv.DAOD_SUSY20.e8351_s3126_r10201_p5241
mc16_13TeV.700346.Sh_2211_Wtaunu_L_maxHTpTV2_CVetoBVeto.deriv.DAOD_SUSY20.e8351_s3126_r10201_p5241
mc16_13TeV.700347.Sh_2211_Wtaunu_H_maxHTpTV2_BFilter.deriv.DAOD_SUSY20.e8351_s3126_r10201_p5241
mc16_13TeV.700348.Sh_2211_Wtaunu_H_maxHTpTV2_CFilterBVeto.deriv.DAOD_SUSY20.e8351_s3126_r10201_p5241
mc16_13TeV.700349.Sh_2211_Wtaunu_H_maxHTpTV2_CVetoBVeto.deriv.DAOD_SUSY20.e8351_s3126_r10201_p5241
