# NAME          : Zlljets_PowHeg
# Data          : 0
# AF2           : 0
# PRIORITY      : 0

mc16_13TeV.361106.PowhegPythia8EvtGen_AZNLOCTEQ6L1_Zee.deriv.DAOD_SUSY20.e3601_s3126_r10201_p5241
mc16_13TeV.361107.PowhegPythia8EvtGen_AZNLOCTEQ6L1_Zmumu.deriv.DAOD_SUSY20.e3601_s3126_r10201_p5241
mc16_13TeV.361665.PowhegPythia8EvtGen_AZNLOCTEQ6L1_DYee_10M60.deriv.DAOD_SUSY20.e4770_s3126_r10201_p5241
mc16_13TeV.361667.PowhegPythia8EvtGen_AZNLOCTEQ6L1_DYmumu_10M60.deriv.DAOD_SUSY20.e4770_s3126_r10201_p5241
