
# NAME 		: diboson2L
# DATA 		: 0
# AF2 		: 0
# PRIORITY 	: 0

mc16_13TeV.363358.Sherpa_221_NNPDF30NNLO_WqqZll.deriv.DAOD_SUSY16.e5525_s3126_r10201_p3652
mc16_13TeV.363356.Sherpa_221_NNPDF30NNLO_ZqqZll.deriv.DAOD_SUSY16.e5525_s3126_r10201_p3652
mc16_13TeV.364254.Sherpa_222_NNPDF30NNLO_llvv.deriv.DAOD_SUSY16.e5916_s3126_r10201_p3652
mc16_13TeV.345718.Sherpa_222_NNPDF30NNLO_ggllvvWW.deriv.DAOD_SUSY16.e6525_s3126_r10201_p3652
mc16_13TeV.345723.Sherpa_222_NNPDF30NNLO_ggllvvZZ.deriv.DAOD_SUSY16.e6213_s3126_r10201_p3652
mc16_13TeV.364285.Sherpa_222_NNPDF30NNLO_llvvjj_EW6.deriv.DAOD_SUSY16.e6055_s3126_r10201_p3652
mc16_13TeV.364290.Sherpa_222_NNPDF30NNLO_llvv_lowMllPtComplement.deriv.DAOD_SUSY16.e6096_s3126_r10201_p3652
