
# NAME     : VBFwinobino_60_57_2L2MET75
# DATA     : 0
# AF2      : 1
# PRIORITY : 0

mc16_13TeV:mc16_13TeV.398090.MGPy8EG_A14N23LO_SM_N2C1pWBVBFQED_60_57_2L2MET75_MadSpin.deriv.DAOD_SUSY16.e7550_e5984_a875_r9364_r9315_p3652
mc16_13TeV:mc16_13TeV.398120.MGPy8EG_A14N23LO_SM_N2C1mWBVBFQED_60_57_2L2MET75_MadSpin.deriv.DAOD_SUSY16.e7550_e5984_a875_r9364_r9315_p3652
mc16_13TeV:mc16_13TeV.398150.MGPy8EG_A14N23LO_SM_C1C1WBVBFQED_60_57_2L2MET75_MadSpin.deriv.DAOD_SUSY16.e7550_e5984_a875_r9364_r9315_p3652
