
# NAME     : VBFhiggsino_120_80_2L2MET75
# DATA     : 0
# AF2      : 1
# PRIORITY : 0

mc16_13TeV:mc16_13TeV.397986.MGPy8EG_A14N23LO_SM_N2N1HHVBFQED_120_80_2L2MET75_MadSpin.deriv.DAOD_SUSY16.e7550_e5984_a875_r9364_r9315_p3652
mc16_13TeV:mc16_13TeV.398016.MGPy8EG_A14N23LO_SM_N2C1pHHVBFQED_120_80_2L2MET75_MadSpin.deriv.DAOD_SUSY16.e7550_e5984_a875_r9364_r9315_p3652
mc16_13TeV:mc16_13TeV.398046.MGPy8EG_A14N23LO_SM_N2C1mHHVBFQED_120_80_2L2MET75_MadSpin.deriv.DAOD_SUSY16.e7550_e5984_a875_r9364_r9315_p3652
mc16_13TeV:mc16_13TeV.398076.MGPy8EG_A14N23LO_SM_C1C1HHVBFQED_120_80_2L2MET75_MadSpin.deriv.DAOD_SUSY16.e7550_e5984_a875_r9364_r9315_p3652
