
# NAME     : VBFhiggsino_40_0_2L2MET75
# DATA     : 0
# AF2      : 1
# PRIORITY : 0

mc16_13TeV:mc16_13TeV.397968.MGPy8EG_A14N23LO_SM_N2N1HHVBFQED_40_0_2L2MET75_MadSpin.deriv.DAOD_SUSY16.e7550_e5984_a875_r9364_r9315_p3652
mc16_13TeV:mc16_13TeV.397998.MGPy8EG_A14N23LO_SM_N2C1pHHVBFQED_40_0_2L2MET75_MadSpin.deriv.DAOD_SUSY16.e7550_e5984_a875_r9364_r9315_p3652
mc16_13TeV:mc16_13TeV.398028.MGPy8EG_A14N23LO_SM_N2C1mHHVBFQED_40_0_2L2MET75_MadSpin.deriv.DAOD_SUSY16.e7550_e5984_a875_r9364_r9315_p3652
mc16_13TeV:mc16_13TeV.398058.MGPy8EG_A14N23LO_SM_C1C1HHVBFQED_40_0_2L2MET75_MadSpin.deriv.DAOD_SUSY16.e7550_e5984_a875_r9364_r9315_p3652
