
# NAME     : VBFwinobino_100_97_2L2MET75
# DATA     : 0
# AF2      : 1
# PRIORITY : 0

mc16_13TeV:mc16_13TeV.398108.MGPy8EG_A14N23LO_SM_N2C1pWBVBFQED_100_97_2L2MET75_MadSpin.deriv.DAOD_SUSY16.e7550_e5984_a875_r9364_r9315_p3652
mc16_13TeV:mc16_13TeV.398138.MGPy8EG_A14N23LO_SM_N2C1mWBVBFQED_100_97_2L2MET75_MadSpin.deriv.DAOD_SUSY16.e7550_e5984_a875_r9364_r9315_p3652
mc16_13TeV:mc16_13TeV.398168.MGPy8EG_A14N23LO_SM_C1C1WBVBFQED_100_97_2L2MET75_MadSpin.deriv.DAOD_SUSY16.e7550_e5984_a875_r9364_r9315_p3652
