
# NAME     : VBFhiggsino_100_95_2L2MET75
# DATA     : 0
# AF2      : 1
# PRIORITY : 0

mc16_13TeV:mc16_13TeV.397989.MGPy8EG_A14N23LO_SM_N2N1HHVBFQED_100_95_2L2MET75_MadSpin.deriv.DAOD_SUSY16.e7550_e5984_a875_r9364_r9315_p3652
mc16_13TeV:mc16_13TeV.398019.MGPy8EG_A14N23LO_SM_N2C1pHHVBFQED_100_95_2L2MET75_MadSpin.deriv.DAOD_SUSY16.e7550_e5984_a875_r9364_r9315_p3652
mc16_13TeV:mc16_13TeV.398049.MGPy8EG_A14N23LO_SM_N2C1mHHVBFQED_100_95_2L2MET75_MadSpin.deriv.DAOD_SUSY16.e7550_e5984_a875_r9364_r9315_p3652
mc16_13TeV:mc16_13TeV.398079.MGPy8EG_A14N23LO_SM_C1C1HHVBFQED_100_95_2L2MET75_MadSpin.deriv.DAOD_SUSY16.e7550_e5984_a875_r9364_r9315_p3652
