# NAME          : ttV
# Data          : 0
# AF2           : 0
# PRIORITY      : 0

mc16_13TeV.410155.aMcAtNloPythia8EvtGen_MEN30NLO_A14N23LO_ttW.deriv.DAOD_PHYS.e5070_s3126_r10201_p5001
mc16_13TeV.410156.aMcAtNloPythia8EvtGen_MEN30NLO_A14N23LO_ttZnunu.deriv.DAOD_PHYS.e5070_s3126_r10201_p5001
mc16_13TeV.410157.aMcAtNloPythia8EvtGen_MEN30NLO_A14N23LO_ttZqq.deriv.DAOD_PHYS.e5070_s3126_r10201_p5001
mc16_13TeV.410218.aMcAtNloPythia8EvtGen_MEN30NLO_A14N23LO_ttee.deriv.DAOD_PHYS.e5070_s3126_r10201_p5001
mc16_13TeV.410219.aMcAtNloPythia8EvtGen_MEN30NLO_A14N23LO_ttmumu.deriv.DAOD_PHYS.e5070_s3126_r10201_p5001
mc16_13TeV.410220.aMcAtNloPythia8EvtGen_MEN30NLO_A14N23LO_tttautau.deriv.DAOD_PHYS.e5070_s3126_r10201_p5001
mc16_13TeV.410276.aMcAtNloPythia8EvtGen_MEN30NLO_A14N23LO_ttee_mll_1_5.deriv.DAOD_PHYS.e6087_s3126_r10201_p5001
mc16_13TeV.410277.aMcAtNloPythia8EvtGen_MEN30NLO_A14N23LO_ttmumu_mll_1_5.deriv.DAOD_PHYS.e6087_s3126_r10201_p5001
mc16_13TeV.410278.aMcAtNloPythia8EvtGen_MEN30NLO_A14N23LO_tttautau_mll_1_5.deriv.DAOD_PHYS.e6087_s3126_r10201_p5001
