
# NAME 		 : EW_Zll_jets_Ph 
# DATA 		 : 0 
# AF2 		 : 0 
# PRIORITY 	 : 0 

mc16_13TeV:mc16_13TeV.600937.PhPy8EG_A14NNPDF23_VBF_Zee.deriv.DAOD_EXOT5.e8373_s3126_r10201_p4060
mc16_13TeV:mc16_13TeV.600938.PhPy8EG_A14NNPDF23_VBF_Zmumu.deriv.DAOD_EXOT5.e8373_s3126_r10201_p4060
mc16_13TeV:mc16_13TeV.600939.PhPy8EG_A14NNPDF23_VBF_Ztautau.deriv.DAOD_EXOT5.e8373_s3126_r10201_p4060