
# NAME 		 : SingleTop_Wt_DR_dilepton 
# DATA 		 : 0 
# AF2 		 : 0 
# PRIORITY 	 : 0 

mc16_13TeV.410648.PowhegPythia8EvtGen_A14_Wt_DR_dilepton_top.deriv.DAOD_EXOT5.e6615_s3126_r10201_p4060
mc16_13TeV.410649.PowhegPythia8EvtGen_A14_Wt_DR_dilepton_antitop.deriv.DAOD_EXOT5.e6615_s3126_r10201_p4060