
# NAME     : MGPy8EG_A14N23LO_SlepSlep_direct_%5_%6_2L8
# DATA     : 0
# AF2      : 1
# PRIORITY : 0

mc16_13TeV:mc16_13TeV.395897.MGPy8EG_A14N23LO_SlepSlep_direct_90p0_30p0_2L8.deriv.DAOD_SUSY16.e6710_e5984_a875_r10201_r10210_p3565
mc16_13TeV:mc16_13TeV.395898.MGPy8EG_A14N23LO_SlepSlep_direct_90p0_1p0_2L8.deriv.DAOD_SUSY16.e6710_e5984_a875_r10201_r10210_p3565
mc16_13TeV:mc16_13TeV.395908.MGPy8EG_A14N23LO_SlepSlep_direct_100p0_50p0_2L8.deriv.DAOD_SUSY16.e6710_e5984_a875_r10201_r10210_p3565
mc16_13TeV:mc16_13TeV.395909.MGPy8EG_A14N23LO_SlepSlep_direct_100p0_40p0_2L8.deriv.DAOD_SUSY16.e6710_e5984_a875_r10201_r10210_p3565
mc16_13TeV:mc16_13TeV.395910.MGPy8EG_A14N23LO_SlepSlep_direct_100p0_1p0_2L8.deriv.DAOD_SUSY16.e6710_e5984_a875_r10201_r10210_p3565
mc16_13TeV:mc16_13TeV.395920.MGPy8EG_A14N23LO_SlepSlep_direct_125p0_75p0_2L8.deriv.DAOD_SUSY16.e6710_e5984_a875_r10201_r10210_p3565
mc16_13TeV:mc16_13TeV.395930.MGPy8EG_A14N23LO_SlepSlep_direct_150p0_100p0_2L8.deriv.DAOD_SUSY16.e6710_e5984_a875_r10201_r10210_p3565
mc16_13TeV:mc16_13TeV.395931.MGPy8EG_A14N23LO_SlepSlep_direct_150p0_90p0_2L8.deriv.DAOD_SUSY16.e6710_e5984_a875_r10201_r10210_p3565
mc16_13TeV:mc16_13TeV.395946.MGPy8EG_A14N23LO_SlepSlep_direct_200p0_150p0_2L8.deriv.DAOD_SUSY16.e6710_e5984_a875_r10201_r10210_p3565
mc16_13TeV:mc16_13TeV.395947.MGPy8EG_A14N23LO_SlepSlep_direct_200p0_140p0_2L8.deriv.DAOD_SUSY16.e6710_e5984_a875_r10201_r10210_p3565
mc16_13TeV:mc16_13TeV.395948.MGPy8EG_A14N23LO_SlepSlep_direct_200p0_100p0_2L8.deriv.DAOD_SUSY16.e6710_e5984_a875_r10201_r10210_p3565
mc16_13TeV:mc16_13TeV.395949.MGPy8EG_A14N23LO_SlepSlep_direct_200p0_1p0_2L8.deriv.DAOD_SUSY16.e6710_e5984_a875_r10201_r10210_p3565
mc16_13TeV:mc16_13TeV.395962.MGPy8EG_A14N23LO_SlepSlep_direct_250p0_200p0_2L8.deriv.DAOD_SUSY16.e6710_e5984_a875_r10201_r10210_p3565
mc16_13TeV:mc16_13TeV.395963.MGPy8EG_A14N23LO_SlepSlep_direct_250p0_150p0_2L8.deriv.DAOD_SUSY16.e6710_e5984_a875_r10201_r10210_p3565
mc16_13TeV:mc16_13TeV.395964.MGPy8EG_A14N23LO_SlepSlep_direct_250p0_100p0_2L8.deriv.DAOD_SUSY16.e6710_e5984_a875_r10201_r10210_p3565
mc16_13TeV:mc16_13TeV.395965.MGPy8EG_A14N23LO_SlepSlep_direct_250p0_1p0_2L8.deriv.DAOD_SUSY16.e6710_e5984_a875_r10201_r10210_p3565
mc16_13TeV:mc16_13TeV.395969.MGPy8EG_A14N23LO_SlepSlep_direct_300p0_280p0_2L8.deriv.DAOD_SUSY16.e6710_e5984_a875_r10201_r10210_p3565
mc16_13TeV:mc16_13TeV.395970.MGPy8EG_A14N23LO_SlepSlep_direct_300p0_250p0_2L8.deriv.DAOD_SUSY16.e6710_e5984_a875_r10201_r10210_p3565
mc16_13TeV:mc16_13TeV.395971.MGPy8EG_A14N23LO_SlepSlep_direct_300p0_200p0_2L8.deriv.DAOD_SUSY16.e6710_e5984_a875_r10201_r10210_p3565
mc16_13TeV:mc16_13TeV.395972.MGPy8EG_A14N23LO_SlepSlep_direct_300p0_150p0_2L8.deriv.DAOD_SUSY16.e6710_e5984_a875_r10201_r10210_p3565
mc16_13TeV:mc16_13TeV.395973.MGPy8EG_A14N23LO_SlepSlep_direct_300p0_100p0_2L8.deriv.DAOD_SUSY16.e6710_e5984_a875_r10201_r10210_p3565
mc16_13TeV:mc16_13TeV.395974.MGPy8EG_A14N23LO_SlepSlep_direct_300p0_1p0_2L8.deriv.DAOD_SUSY16.e6710_e5984_a875_r10201_r10210_p3565
mc16_13TeV:mc16_13TeV.395975.MGPy8EG_A14N23LO_SlepSlep_direct_350p0_330p0_2L8.deriv.DAOD_SUSY16.e6710_e5984_a875_r10201_r10210_p3565
mc16_13TeV:mc16_13TeV.395976.MGPy8EG_A14N23LO_SlepSlep_direct_350p0_300p0_2L8.deriv.DAOD_SUSY16.e6710_e5984_a875_r10201_r10210_p3565
mc16_13TeV:mc16_13TeV.395977.MGPy8EG_A14N23LO_SlepSlep_direct_350p0_250p0_2L8.deriv.DAOD_SUSY16.e6710_e5984_a875_r10201_r10210_p3565
mc16_13TeV:mc16_13TeV.395978.MGPy8EG_A14N23LO_SlepSlep_direct_350p0_200p0_2L8.deriv.DAOD_SUSY16.e6710_e5984_a875_r10201_r10210_p3565
mc16_13TeV:mc16_13TeV.395979.MGPy8EG_A14N23LO_SlepSlep_direct_350p0_150p0_2L8.deriv.DAOD_SUSY16.e6710_e5984_a875_r10201_r10210_p3565
mc16_13TeV:mc16_13TeV.395980.MGPy8EG_A14N23LO_SlepSlep_direct_350p0_100p0_2L8.deriv.DAOD_SUSY16.e6710_e5984_a875_r10201_r10210_p3565
mc16_13TeV:mc16_13TeV.395981.MGPy8EG_A14N23LO_SlepSlep_direct_350p0_1p0_2L8.deriv.DAOD_SUSY16.e6710_e5984_a875_r10201_r10210_p3565
mc16_13TeV:mc16_13TeV.395982.MGPy8EG_A14N23LO_SlepSlep_direct_400p0_380p0_2L8.deriv.DAOD_SUSY16.e6710_e5984_a875_r10201_r10210_p3565
mc16_13TeV:mc16_13TeV.395983.MGPy8EG_A14N23LO_SlepSlep_direct_400p0_350p0_2L8.deriv.DAOD_SUSY16.e6710_e5984_a875_r10201_r10210_p3565
mc16_13TeV:mc16_13TeV.395984.MGPy8EG_A14N23LO_SlepSlep_direct_400p0_300p0_2L8.deriv.DAOD_SUSY16.e6710_e5984_a875_r10201_r10210_p3565
mc16_13TeV:mc16_13TeV.395985.MGPy8EG_A14N23LO_SlepSlep_direct_400p0_250p0_2L8.deriv.DAOD_SUSY16.e6710_e5984_a875_r10201_r10210_p3565
mc16_13TeV:mc16_13TeV.395986.MGPy8EG_A14N23LO_SlepSlep_direct_400p0_200p0_2L8.deriv.DAOD_SUSY16.e6710_e5984_a875_r10201_r10210_p3565
mc16_13TeV:mc16_13TeV.395987.MGPy8EG_A14N23LO_SlepSlep_direct_400p0_100p0_2L8.deriv.DAOD_SUSY16.e6710_e5984_a875_r10201_r10210_p3565
mc16_13TeV:mc16_13TeV.395988.MGPy8EG_A14N23LO_SlepSlep_direct_400p0_1p0_2L8.deriv.DAOD_SUSY16.e6710_e5984_a875_r10201_r10210_p3565
mc16_13TeV:mc16_13TeV.395989.MGPy8EG_A14N23LO_SlepSlep_direct_450p0_400p0_2L8.deriv.DAOD_SUSY16.e6710_e5984_a875_r10201_r10210_p3565
mc16_13TeV:mc16_13TeV.395990.MGPy8EG_A14N23LO_SlepSlep_direct_450p0_350p0_2L8.deriv.DAOD_SUSY16.e6710_e5984_a875_r10201_r10210_p3565
mc16_13TeV:mc16_13TeV.395991.MGPy8EG_A14N23LO_SlepSlep_direct_450p0_300p0_2L8.deriv.DAOD_SUSY16.e6710_e5984_a875_r10201_r10210_p3565
mc16_13TeV:mc16_13TeV.395992.MGPy8EG_A14N23LO_SlepSlep_direct_450p0_250p0_2L8.deriv.DAOD_SUSY16.e6710_e5984_a875_r10201_r10210_p3565
mc16_13TeV:mc16_13TeV.395993.MGPy8EG_A14N23LO_SlepSlep_direct_450p0_200p0_2L8.deriv.DAOD_SUSY16.e6710_e5984_a875_r10201_r10210_p3565
mc16_13TeV:mc16_13TeV.395994.MGPy8EG_A14N23LO_SlepSlep_direct_450p0_100p0_2L8.deriv.DAOD_SUSY16.e6710_e5984_a875_r10201_r10210_p3565
mc16_13TeV:mc16_13TeV.395995.MGPy8EG_A14N23LO_SlepSlep_direct_450p0_1p0_2L8.deriv.DAOD_SUSY16.e6710_e5984_a875_r10201_r10210_p3565
mc16_13TeV:mc16_13TeV.395996.MGPy8EG_A14N23LO_SlepSlep_direct_500p0_450p0_2L8.deriv.DAOD_SUSY16.e6710_e5984_a875_r10201_r10210_p3565
mc16_13TeV:mc16_13TeV.395997.MGPy8EG_A14N23LO_SlepSlep_direct_500p0_400p0_2L8.deriv.DAOD_SUSY16.e6710_e5984_a875_r10201_r10210_p3565
mc16_13TeV:mc16_13TeV.395998.MGPy8EG_A14N23LO_SlepSlep_direct_500p0_350p0_2L8.deriv.DAOD_SUSY16.e6710_e5984_a875_r10201_r10210_p3565
mc16_13TeV:mc16_13TeV.395999.MGPy8EG_A14N23LO_SlepSlep_direct_500p0_300p0_2L8.deriv.DAOD_SUSY16.e6710_e5984_a875_r10201_r10210_p3565
mc16_13TeV:mc16_13TeV.396000.MGPy8EG_A14N23LO_SlepSlep_direct_500p0_200p0_2L8.deriv.DAOD_SUSY16.e6710_e5984_a875_r10201_r10210_p3565
mc16_13TeV:mc16_13TeV.396001.MGPy8EG_A14N23LO_SlepSlep_direct_500p0_100p0_2L8.deriv.DAOD_SUSY16.e6710_e5984_a875_r10201_r10210_p3565
mc16_13TeV:mc16_13TeV.396002.MGPy8EG_A14N23LO_SlepSlep_direct_500p0_1p0_2L8.deriv.DAOD_SUSY16.e6710_e5984_a875_r10201_r10210_p3565
mc16_13TeV:mc16_13TeV.396003.MGPy8EG_A14N23LO_SlepSlep_direct_550p0_500p0_2L8.deriv.DAOD_SUSY16.e6710_e5984_a875_r10201_r10210_p3565
mc16_13TeV:mc16_13TeV.396004.MGPy8EG_A14N23LO_SlepSlep_direct_550p0_450p0_2L8.deriv.DAOD_SUSY16.e6710_e5984_a875_r10201_r10210_p3565
mc16_13TeV:mc16_13TeV.396005.MGPy8EG_A14N23LO_SlepSlep_direct_550p0_400p0_2L8.deriv.DAOD_SUSY16.e6710_e5984_a875_r10201_r10210_p3565
mc16_13TeV:mc16_13TeV.396006.MGPy8EG_A14N23LO_SlepSlep_direct_550p0_350p0_2L8.deriv.DAOD_SUSY16.e6710_e5984_a875_r10201_r10210_p3565
mc16_13TeV:mc16_13TeV.396007.MGPy8EG_A14N23LO_SlepSlep_direct_550p0_300p0_2L8.deriv.DAOD_SUSY16.e6710_e5984_a875_r10201_r10210_p3565
mc16_13TeV:mc16_13TeV.396008.MGPy8EG_A14N23LO_SlepSlep_direct_550p0_200p0_2L8.deriv.DAOD_SUSY16.e6710_e5984_a875_r10201_r10210_p3565
mc16_13TeV:mc16_13TeV.396009.MGPy8EG_A14N23LO_SlepSlep_direct_550p0_100p0_2L8.deriv.DAOD_SUSY16.e6710_e5984_a875_r10201_r10210_p3565
mc16_13TeV:mc16_13TeV.396010.MGPy8EG_A14N23LO_SlepSlep_direct_550p0_1p0_2L8.deriv.DAOD_SUSY16.e6710_e5984_a875_r10201_r10210_p3565
mc16_13TeV:mc16_13TeV.396011.MGPy8EG_A14N23LO_SlepSlep_direct_600p0_500p0_2L8.deriv.DAOD_SUSY16.e6710_e5984_a875_r10201_r10210_p3565
mc16_13TeV:mc16_13TeV.396012.MGPy8EG_A14N23LO_SlepSlep_direct_600p0_450p0_2L8.deriv.DAOD_SUSY16.e6710_e5984_a875_r10201_r10210_p3565
mc16_13TeV:mc16_13TeV.396014.MGPy8EG_A14N23LO_SlepSlep_direct_600p0_300p0_2L8.deriv.DAOD_SUSY16.e6710_e5984_a875_r10201_r10210_p3565
mc16_13TeV:mc16_13TeV.396015.MGPy8EG_A14N23LO_SlepSlep_direct_600p0_200p0_2L8.deriv.DAOD_SUSY16.e6710_e5984_a875_r10201_r10210_p3565
mc16_13TeV:mc16_13TeV.396016.MGPy8EG_A14N23LO_SlepSlep_direct_600p0_100p0_2L8.deriv.DAOD_SUSY16.e6710_e5984_a875_r10201_r10210_p3565
mc16_13TeV:mc16_13TeV.396017.MGPy8EG_A14N23LO_SlepSlep_direct_600p0_1p0_2L8.deriv.DAOD_SUSY16.e6710_e5984_a875_r10201_r10210_p3565
mc16_13TeV:mc16_13TeV.396018.MGPy8EG_A14N23LO_SlepSlep_direct_650p0_550p0_2L8.deriv.DAOD_SUSY16.e6710_e5984_a875_r10201_r10210_p3565
mc16_13TeV:mc16_13TeV.396019.MGPy8EG_A14N23LO_SlepSlep_direct_650p0_500p0_2L8.deriv.DAOD_SUSY16.e6710_e5984_a875_r10201_r10210_p3565
mc16_13TeV:mc16_13TeV.396020.MGPy8EG_A14N23LO_SlepSlep_direct_650p0_450p0_2L8.deriv.DAOD_SUSY16.e6710_e5984_a875_r10201_r10210_p3565
mc16_13TeV:mc16_13TeV.396021.MGPy8EG_A14N23LO_SlepSlep_direct_650p0_400p0_2L8.deriv.DAOD_SUSY16.e6710_e5984_a875_r10201_r10210_p3565
mc16_13TeV:mc16_13TeV.396022.MGPy8EG_A14N23LO_SlepSlep_direct_650p0_300p0_2L8.deriv.DAOD_SUSY16.e6710_e5984_a875_r10201_r10210_p3565
mc16_13TeV:mc16_13TeV.396023.MGPy8EG_A14N23LO_SlepSlep_direct_650p0_200p0_2L8.deriv.DAOD_SUSY16.e6710_e5984_a875_r10201_r10210_p3565
mc16_13TeV:mc16_13TeV.396024.MGPy8EG_A14N23LO_SlepSlep_direct_650p0_100p0_2L8.deriv.DAOD_SUSY16.e6710_e5984_a875_r10201_r10210_p3565
mc16_13TeV:mc16_13TeV.396025.MGPy8EG_A14N23LO_SlepSlep_direct_650p0_1p0_2L8.deriv.DAOD_SUSY16.e6710_e5984_a875_r10201_r10210_p3565
mc16_13TeV:mc16_13TeV.396026.MGPy8EG_A14N23LO_SlepSlep_direct_700p0_600p0_2L8.deriv.DAOD_SUSY16.e6710_e5984_a875_r10201_r10210_p3565
mc16_13TeV:mc16_13TeV.396027.MGPy8EG_A14N23LO_SlepSlep_direct_700p0_550p0_2L8.deriv.DAOD_SUSY16.e6710_e5984_a875_r10201_r10210_p3565
mc16_13TeV:mc16_13TeV.396028.MGPy8EG_A14N23LO_SlepSlep_direct_700p0_500p0_2L8.deriv.DAOD_SUSY16.e6710_e5984_a875_r10201_r10210_p3565
mc16_13TeV:mc16_13TeV.396029.MGPy8EG_A14N23LO_SlepSlep_direct_700p0_400p0_2L8.deriv.DAOD_SUSY16.e6710_e5984_a875_r10201_r10210_p3565
mc16_13TeV:mc16_13TeV.396030.MGPy8EG_A14N23LO_SlepSlep_direct_700p0_300p0_2L8.deriv.DAOD_SUSY16.e6710_e5984_a875_r10201_r10210_p3565
mc16_13TeV:mc16_13TeV.396031.MGPy8EG_A14N23LO_SlepSlep_direct_700p0_200p0_2L8.deriv.DAOD_SUSY16.e6710_e5984_a875_r10201_r10210_p3565
mc16_13TeV:mc16_13TeV.396032.MGPy8EG_A14N23LO_SlepSlep_direct_700p0_100p0_2L8.deriv.DAOD_SUSY16.e6710_e5984_a875_r10201_r10210_p3565
mc16_13TeV:mc16_13TeV.396033.MGPy8EG_A14N23LO_SlepSlep_direct_700p0_1p0_2L8.deriv.DAOD_SUSY16.e6710_e5984_a875_r10201_r10210_p3565
mc16_13TeV:mc16_13TeV.396034.MGPy8EG_A14N23LO_SlepSlep_direct_800p0_700p0_2L8.deriv.DAOD_SUSY16.e6710_e5984_a875_r10201_r10210_p3565
mc16_13TeV:mc16_13TeV.396035.MGPy8EG_A14N23LO_SlepSlep_direct_800p0_600p0_2L8.deriv.DAOD_SUSY16.e6710_e5984_a875_r10201_r10210_p3565
mc16_13TeV:mc16_13TeV.396036.MGPy8EG_A14N23LO_SlepSlep_direct_800p0_500p0_2L8.deriv.DAOD_SUSY16.e6710_e5984_a875_r10201_r10210_p3565
mc16_13TeV:mc16_13TeV.396037.MGPy8EG_A14N23LO_SlepSlep_direct_800p0_400p0_2L8.deriv.DAOD_SUSY16.e6710_e5984_a875_r10201_r10210_p3565
mc16_13TeV:mc16_13TeV.396038.MGPy8EG_A14N23LO_SlepSlep_direct_800p0_300p0_2L8.deriv.DAOD_SUSY16.e6710_e5984_a875_r10201_r10210_p3565
mc16_13TeV:mc16_13TeV.396039.MGPy8EG_A14N23LO_SlepSlep_direct_800p0_200p0_2L8.deriv.DAOD_SUSY16.e6710_e5984_a875_r10201_r10210_p3565
mc16_13TeV:mc16_13TeV.396040.MGPy8EG_A14N23LO_SlepSlep_direct_800p0_100p0_2L8.deriv.DAOD_SUSY16.e6710_e5984_a875_r10201_r10210_p3565
mc16_13TeV:mc16_13TeV.396041.MGPy8EG_A14N23LO_SlepSlep_direct_800p0_1p0_2L8.deriv.DAOD_SUSY16.e6710_e5984_a875_r10201_r10210_p3565
