
# NAME 		: MGPy8EG_A14N23LO_SM_N2C1p_%5_%6_2L2MET75_MadSpin
# DATA 		: 0
# AF2 		: 1
# PRIORITY 	: 0

mc16_13TeV.394984.MGPy8EG_A14N23LO_SM_N2C1p_100_60_2L2MET75_MadSpin.deriv.DAOD_SUSY16.e6587_e5984_a875_r10201_r10210_p3565
mc16_13TeV.394986.MGPy8EG_A14N23LO_SM_N2C1p_82_80_2L2MET75_MadSpin.deriv.DAOD_SUSY16.e6708_e5984_a875_r10201_r10210_p3565
mc16_13TeV.394987.MGPy8EG_A14N23LO_SM_N2C1p_83_80_2L2MET75_MadSpin.deriv.DAOD_SUSY16.e6708_e5984_a875_r10201_r10210_p3565
mc16_13TeV.394988.MGPy8EG_A14N23LO_SM_N2C1p_85_80_2L2MET75_MadSpin.deriv.DAOD_SUSY16.e6587_e5984_a875_r10201_r10210_p3565
mc16_13TeV.394989.MGPy8EG_A14N23LO_SM_N2C1p_90_80_2L2MET75_MadSpin.deriv.DAOD_SUSY16.e6587_e5984_a875_r10201_r10210_p3565
mc16_13TeV.394990.MGPy8EG_A14N23LO_SM_N2C1p_95_80_2L2MET75_MadSpin.deriv.DAOD_SUSY16.e6708_e5984_a875_r10201_r10210_p3565
mc16_13TeV.394991.MGPy8EG_A14N23LO_SM_N2C1p_100_80_2L2MET75_MadSpin.deriv.DAOD_SUSY16.e6708_e5984_a875_r10201_r10210_p3565
mc16_13TeV.394992.MGPy8EG_A14N23LO_SM_N2C1p_110_80_2L2MET75_MadSpin.deriv.DAOD_SUSY16.e6708_e5984_a875_r10201_r10210_p3565
mc16_13TeV.394993.MGPy8EG_A14N23LO_SM_N2C1p_120_80_2L2MET75_MadSpin.deriv.DAOD_SUSY16.e6587_e5984_a875_r10201_r10210_p3565
mc16_13TeV.394995.MGPy8EG_A14N23LO_SM_N2C1p_102_100_2L2MET75_MadSpin.deriv.DAOD_SUSY16.e6708_e5984_a875_r10201_r10210_p3565
mc16_13TeV.394996.MGPy8EG_A14N23LO_SM_N2C1p_103_100_2L2MET75_MadSpin.deriv.DAOD_SUSY16.e6708_e5984_a875_r10201_r10210_p3565
mc16_13TeV.394997.MGPy8EG_A14N23LO_SM_N2C1p_105_100_2L2MET75_MadSpin.deriv.DAOD_SUSY16.e6708_e5984_a875_r10201_r10210_p3565
mc16_13TeV.394998.MGPy8EG_A14N23LO_SM_N2C1p_110_100_2L2MET75_MadSpin.deriv.DAOD_SUSY16.e6587_e5984_a875_r10201_r10210_p3565
mc16_13TeV.394999.MGPy8EG_A14N23LO_SM_N2C1p_115_100_2L2MET75_MadSpin.deriv.DAOD_SUSY16.e6587_e5984_a875_r10201_r10210_p3565
mc16_13TeV.395000.MGPy8EG_A14N23LO_SM_N2C1p_120_100_2L2MET75_MadSpin.deriv.DAOD_SUSY16.e6587_e5984_a875_r10201_r10210_p3565
mc16_13TeV.395001.MGPy8EG_A14N23LO_SM_N2C1p_130_100_2L2MET75_MadSpin.deriv.DAOD_SUSY16.e6587_e5984_a875_r10201_r10210_p3565
mc16_13TeV.395002.MGPy8EG_A14N23LO_SM_N2C1p_140_100_2L2MET75_MadSpin.deriv.DAOD_SUSY16.e6708_e5984_a875_r10201_r10210_p3565
mc16_13TeV.395004.MGPy8EG_A14N23LO_SM_N2C1p_127_125_2L2MET75_MadSpin.deriv.DAOD_SUSY16.e6708_e5984_a875_r10201_r10210_p3565
mc16_13TeV.395005.MGPy8EG_A14N23LO_SM_N2C1p_128_125_2L2MET75_MadSpin.deriv.DAOD_SUSY16.e6587_e5984_a875_r10201_r10210_p3565
mc16_13TeV.395006.MGPy8EG_A14N23LO_SM_N2C1p_130_125_2L2MET75_MadSpin.deriv.DAOD_SUSY16.e6587_e5984_a875_r10201_r10210_p3565
mc16_13TeV.395007.MGPy8EG_A14N23LO_SM_N2C1p_135_125_2L2MET75_MadSpin.deriv.DAOD_SUSY16.e6587_e5984_a875_r10201_r10210_p3565
mc16_13TeV.395008.MGPy8EG_A14N23LO_SM_N2C1p_140_125_2L2MET75_MadSpin.deriv.DAOD_SUSY16.e6587_e5984_a875_r10201_r10210_p3565
mc16_13TeV.395009.MGPy8EG_A14N23LO_SM_N2C1p_145_125_2L2MET75_MadSpin.deriv.DAOD_SUSY16.e6587_e5984_a875_r10201_r10210_p3565
mc16_13TeV.395010.MGPy8EG_A14N23LO_SM_N2C1p_155_125_2L2MET75_MadSpin.deriv.DAOD_SUSY16.e6587_e5984_a875_r10201_r10210_p3565
mc16_13TeV.395011.MGPy8EG_A14N23LO_SM_N2C1p_165_125_2L2MET75_MadSpin.deriv.DAOD_SUSY16.e6587_e5984_a875_r10201_r10210_p3565
mc16_13TeV.395013.MGPy8EG_A14N23LO_SM_N2C1p_152_150_2L2MET75_MadSpin.deriv.DAOD_SUSY16.e6708_e5984_a875_r10201_r10210_p3565
mc16_13TeV.395014.MGPy8EG_A14N23LO_SM_N2C1p_153_150_2L2MET75_MadSpin.deriv.DAOD_SUSY16.e6587_e5984_a875_r10201_r10210_p3565
mc16_13TeV.395015.MGPy8EG_A14N23LO_SM_N2C1p_155_150_2L2MET75_MadSpin.deriv.DAOD_SUSY16.e6708_e5984_a875_r10201_r10210_p3565
mc16_13TeV.395016.MGPy8EG_A14N23LO_SM_N2C1p_160_150_2L2MET75_MadSpin.deriv.DAOD_SUSY16.e6708_e5984_a875_r10201_r10210_p3565
mc16_13TeV.395017.MGPy8EG_A14N23LO_SM_N2C1p_165_150_2L2MET75_MadSpin.deriv.DAOD_SUSY16.e6708_e5984_a875_r10201_r10210_p3565
mc16_13TeV.395018.MGPy8EG_A14N23LO_SM_N2C1p_170_150_2L2MET75_MadSpin.deriv.DAOD_SUSY16.e6587_e5984_a875_r10201_r10210_p3565
mc16_13TeV.395019.MGPy8EG_A14N23LO_SM_N2C1p_180_150_2L2MET75_MadSpin.deriv.DAOD_SUSY16.e6587_e5984_a875_r10201_r10210_p3565
mc16_13TeV.395020.MGPy8EG_A14N23LO_SM_N2C1p_190_150_2L2MET75_MadSpin.deriv.DAOD_SUSY16.e6587_e5984_a875_r10201_r10210_p3565
mc16_13TeV.395022.MGPy8EG_A14N23LO_SM_N2C1p_202_200_2L2MET75_MadSpin.deriv.DAOD_SUSY16.e6708_e5984_a875_r10201_r10210_p3565
mc16_13TeV.395023.MGPy8EG_A14N23LO_SM_N2C1p_203_200_2L2MET75_MadSpin.deriv.DAOD_SUSY16.e6587_e5984_a875_r10201_r10210_p3565
mc16_13TeV.395024.MGPy8EG_A14N23LO_SM_N2C1p_205_200_2L2MET75_MadSpin.deriv.DAOD_SUSY16.e6587_e5984_a875_r10201_r10210_p3565
mc16_13TeV.395025.MGPy8EG_A14N23LO_SM_N2C1p_210_200_2L2MET75_MadSpin.deriv.DAOD_SUSY16.e6587_e5984_a875_r10201_r10210_p3565
mc16_13TeV.395026.MGPy8EG_A14N23LO_SM_N2C1p_215_200_2L2MET75_MadSpin.deriv.DAOD_SUSY16.e6587_e5984_a875_r10201_r10210_p3565
mc16_13TeV.395027.MGPy8EG_A14N23LO_SM_N2C1p_220_200_2L2MET75_MadSpin.deriv.DAOD_SUSY16.e6587_e5984_a875_r10201_r10210_p3565
mc16_13TeV.395028.MGPy8EG_A14N23LO_SM_N2C1p_230_200_2L2MET75_MadSpin.deriv.DAOD_SUSY16.e6587_e5984_a875_r10201_r10210_p3565
mc16_13TeV.395029.MGPy8EG_A14N23LO_SM_N2C1p_240_200_2L2MET75_MadSpin.deriv.DAOD_SUSY16.e6587_e5984_a875_r10201_r10210_p3565
mc16_13TeV.395031.MGPy8EG_A14N23LO_SM_N2C1p_252_250_2L2MET75_MadSpin.deriv.DAOD_SUSY16.e6708_e5984_a875_r10201_r10210_p3565
mc16_13TeV.395032.MGPy8EG_A14N23LO_SM_N2C1p_253_250_2L2MET75_MadSpin.deriv.DAOD_SUSY16.e6708_e5984_a875_r10201_r10210_p3565
mc16_13TeV.395033.MGPy8EG_A14N23LO_SM_N2C1p_255_250_2L2MET75_MadSpin.deriv.DAOD_SUSY16.e6587_e5984_a875_r10201_r10210_p3565
mc16_13TeV.395034.MGPy8EG_A14N23LO_SM_N2C1p_260_250_2L2MET75_MadSpin.deriv.DAOD_SUSY16.e6708_e5984_a875_r10201_r10210_p3565
mc16_13TeV.395035.MGPy8EG_A14N23LO_SM_N2C1p_265_250_2L2MET75_MadSpin.deriv.DAOD_SUSY16.e6587_e5984_a875_r10201_r10210_p3565
mc16_13TeV.395036.MGPy8EG_A14N23LO_SM_N2C1p_270_250_2L2MET75_MadSpin.deriv.DAOD_SUSY16.e6587_e5984_a875_r10201_r10210_p3565
mc16_13TeV.395037.MGPy8EG_A14N23LO_SM_N2C1p_280_250_2L2MET75_MadSpin.deriv.DAOD_SUSY16.e6708_e5984_a875_r10201_r10210_p3565
mc16_13TeV.395038.MGPy8EG_A14N23LO_SM_N2C1p_290_250_2L2MET75_MadSpin.deriv.DAOD_SUSY16.e6587_e5984_a875_r10201_r10210_p3565
