
# NAME 		 : EW_Wjets_Herwig 
# DATA 		 : 0 
# AF2 		 : 0 
# PRIORITY 	 : 0 

mc16_13TeV:mc16_13TeV.363237.H7_713_WenujjEW.deriv.DAOD_EXOT5.e7798_s3126_r9364_p4060
mc16_13TeV:mc16_13TeV.363239.H7_713_WtaunujjEW.deriv.DAOD_EXOT5.e7798_s3126_r9364_p4060
mc16_13TeV:mc16_13TeV.830006.H7_720_WmunujjEW.deriv.DAOD_EXOT5.e8022_s3126_r9364_p4060