
# NAME 		 : QCDdijet_Ph 
# DATA 		 : 0 
# AF2 		 : 0 
# PRIORITY 	 : 0 

mc16_13TeV.426001.PowhegPythia8EvtGen_A14_NNPDF23LO_CT10ME_jetjet_JZ1.deriv.DAOD_EXOT5.e3788_s3126_r9364_p4060
mc16_13TeV.426002.PowhegPythia8EvtGen_A14_NNPDF23LO_CT10ME_jetjet_JZ2.deriv.DAOD_EXOT5.e3788_s3126_r9364_p4060
mc16_13TeV.426003.PowhegPythia8EvtGen_A14_NNPDF23LO_CT10ME_jetjet_JZ3.deriv.DAOD_EXOT5.e3788_s3126_r9364_p4060
mc16_13TeV.426004.PowhegPythia8EvtGen_A14_NNPDF23LO_CT10ME_jetjet_JZ4.deriv.DAOD_EXOT5.e3788_s3126_r9364_p4060
mc16_13TeV.426005.PowhegPythia8EvtGen_A14_NNPDF23LO_CT10ME_jetjet_JZ5.deriv.DAOD_EXOT5.e3788_s3126_r9364_p4060
mc16_13TeV.426006.PowhegPythia8EvtGen_A14_NNPDF23LO_CT10ME_jetjet_JZ6.deriv.DAOD_EXOT5.e3788_s3126_r9364_p4060
mc16_13TeV.426007.PowhegPythia8EvtGen_A14_NNPDF23LO_CT10ME_jetjet_JZ7.deriv.DAOD_EXOT5.e3788_s3126_r9364_p4060
mc16_13TeV.426008.PowhegPythia8EvtGen_A14_NNPDF23LO_CT10ME_jetjet_JZ8.deriv.DAOD_EXOT5.e3788_s3126_r9364_p4060
mc16_13TeV.426009.PowhegPythia8EvtGen_A14_NNPDF23LO_CT10ME_jetjet_JZ9.deriv.DAOD_EXOT5.e3788_s3126_r9364_p4060