
# NAME 		 : Strong_Znunu_jets_Sh2210 
# DATA 		 : 0 
# AF2 		 : 0 
# PRIORITY 	 : 0 

mc16_13TeV:mc16_13TeV.700140.Sh_2210_Znunu_EnhLogpTV_BFilter.deriv.DAOD_EXOT5.e8118_s3126_r9364_p4344
mc16_13TeV:mc16_13TeV.700141.Sh_2210_Znunu_EnhLogpTV_CFilterBVeto.deriv.DAOD_EXOT5.e8118_s3126_r9364_p4344
mc16_13TeV:mc16_13TeV.700142.Sh_2210_Znunu_EnhLogpTV_CVetoBVeto.deriv.DAOD_EXOT5.e8118_s3126_r9364_p4344