
# NAME 		 : VVjets_Sh222_fulllep 
# DATA 		 : 0 
# AF2 		 : 0 
# PRIORITY 	 : 0 

mc16_13TeV.364250.Sherpa_222_NNPDF30NNLO_llll.deriv.DAOD_EXOT5.e5894_s3126_r9364_p4060
mc16_13TeV.364253.Sherpa_222_NNPDF30NNLO_lllv.deriv.DAOD_EXOT5.e5916_s3126_r9364_p4060
mc16_13TeV.364254.Sherpa_222_NNPDF30NNLO_llvv.deriv.DAOD_EXOT5.e5916_s3126_r9364_p4060
mc16_13TeV.364255.Sherpa_222_NNPDF30NNLO_lvvv.deriv.DAOD_EXOT5.e5916_s3126_r9364_p4060