
# NAME 		 : VBFWBN2C1m_250_249p5_MET75 
# DATA 		 : 0 
# AF2 		 : 1 
# PRIORITY 	 : 0 

mc16_13TeV:mc16_13TeV.500240.MGPy8EG_A14N23LO_VBFWBN2C1m_250_249p5_MET75_MS.deriv.DAOD_EXOT5.e8088_a875_r10724_p4149