
# NAME 		: MGPy8EG_A14N23LO_SM_C1C1WBVBFQED_%5_%6_2L2MET75_MadSpin
# DATA 		: 0
# AF2 		: 1
# PRIORITY 	: 0

mc16_13TeV.396567.MGPy8EG_A14N23LO_SM_C1C1WBVBFQED_113_110_2L2MET75_MadSpin.deriv.DAOD_SUSY16.e7034_a875_r10724_p3652
mc16_13TeV.396568.MGPy8EG_A14N23LO_SM_C1C1WBVBFQED_120_110_2L2MET75_MadSpin.deriv.DAOD_SUSY16.e7039_a875_r10724_p3652
mc16_13TeV.396569.MGPy8EG_A14N23LO_SM_C1C1WBVBFQED_140_110_2L2MET75_MadSpin.deriv.DAOD_SUSY16.e7034_a875_r10724_p3652
mc16_13TeV.396570.MGPy8EG_A14N23LO_SM_C1C1WBVBFQED_150_110_2L2MET75_MadSpin.deriv.DAOD_SUSY16.e7034_a875_r10724_p3652
mc16_13TeV.396571.MGPy8EG_A14N23LO_SM_C1C1WBVBFQED_170_140_2L2MET75_MadSpin.deriv.DAOD_SUSY16.e7034_a875_r10724_p3652
mc16_13TeV.396572.MGPy8EG_A14N23LO_SM_C1C1WBVBFQED_180_140_2L2MET75_MadSpin.deriv.DAOD_SUSY16.e7034_a875_r10724_p3652

