
# NAME     : dataB
# DATA     : 1
# AF2      : 0
# PRIORITY : 0

data16_13TeV:data16_13TeV.periodA.physics_Main.PhysCont.DAOD_SUSY16.grp16_v01_p3372 
data16_13TeV:data16_13TeV.periodB.physics_Main.PhysCont.DAOD_SUSY16.grp16_v01_p3372 
data16_13TeV:data16_13TeV.periodC.physics_Main.PhysCont.DAOD_SUSY16.grp16_v01_p3372 
data16_13TeV:data16_13TeV.periodD.physics_Main.PhysCont.DAOD_SUSY16.grp16_v01_p3372 

